codigos/Testbench/Maquina_De_Estados_&_Modos_TB/build/Maq_Est_Y_Modos.vcd
$date
	Sun Aug 18 18:18:26 2024
$end
$version
	Icarus Verilog
$end
$timescale
	1s
$end
$scope module Maq_Est_Y_Modos_TB $end
$scope module uut $end
$var wire 1 ! Boton_Comida $end
$var wire 1 " Boton_Medicina $end
$var wire 1 # Senal_Reset $end
$var wire 1 $ clk $end
$var wire 1 % reset $end
$var wire 1 & Senal_Activo_Medicina $end
$var wire 1 ' Senal_Activo_Comida $end
$var wire 1 ( Senal_5Seg_Medicina $end
$var wire 1 ) Senal_5Seg_Comida $end
$var wire 2 * Cable_Niveles_Medicina [1:0] $end
$var wire 2 + Cable_Niveles_Comida [1:0] $end
$scope module maq_est $end
$var wire 1 , Sensor_Luz $end
$var wire 1 - Sensor_UltraSonido $end
$var wire 1 $ clk $end
$var wire 1 # reset $end
$var wire 2 . Nivel_Comida [1:0] $end
$var wire 1 ( Boton_Medicina $end
$var wire 1 ) Boton_Comida $end
$var parameter 2 / Estado_Comiendo $end
$var parameter 2 0 Estado_Desnutrido $end
$var parameter 2 1 Estado_Hambre $end
$var parameter 2 2 Estado_IDLE $end
$var reg 1 ' Activo_Comida $end
$var reg 1 & Activo_Medicina $end
$var reg 2 3 Estado_Siguiente [1:0] $end
$var reg 2 4 Estados [1:0] $end
$var reg 2 5 Visualizacion [1:0] $end
$upscope $end
$scope module mods $end
$var wire 1 ' Activo_Comida $end
$var wire 1 & Activo_Medicina $end
$var wire 1 ! Bot_Energia $end
$var wire 1 " Bot_Medicina $end
$var wire 1 6 Bot_Reset $end
$var wire 1 7 Bot_Test $end
$var wire 1 8 Entrada_Animo $end
$var wire 1 9 Entrada_Descanso $end
$var wire 2 : LED_Animo [0:1] $end
$var wire 2 ; LED_Descanso [0:1] $end
$var wire 2 < LED_Energia [0:1] $end
$var wire 2 = LED_Medicina [0:1] $end
$var wire 1 % Reset_General $end
$var wire 1 $ clk $end
$var wire 1 ) senal_5segEnergia $end
$var wire 1 ( senal_5segMedicina $end
$var wire 1 > senal_5segunMedicina $end
$var wire 1 ? senal_5segunEnergia $end
$var wire 2 @ Nivel_Medicina [0:1] $end
$var wire 2 A Nivel_Energia [0:1] $end
$var wire 2 B Nivel_Descanso [0:1] $end
$var wire 2 C Nivel_Animo [0:1] $end
$var wire 1 D B_Test $end
$var wire 1 E B_Reset $end
$var wire 1 F B_Medicina $end
$var wire 1 G B_Energia $end
$scope module Modo_Animo $end
$var wire 1 H B_reset $end
$var wire 1 8 Entrada $end
$var wire 2 I Nivel [0:1] $end
$var wire 1 J activo $end
$var wire 1 $ clk $end
$var wire 1 K senal_5seg $end
$var parameter 32 L Parametro $end
$var parameter 32 M tiempo5seg $end
$var reg 3 N Contador_5segundos [2:0] $end
$var reg 2 O Contador_Nivel [0:1] $end
$var reg 4 P Contador_Tiempo [3:0] $end
$var reg 1 Q Entrada_Sube_Nivel $end
$var reg 1 R Entrada_prev $end
$var reg 1 S senal_5segun $end
$upscope $end
$scope module Modo_Descanso $end
$var wire 1 T B_reset $end
$var wire 1 U Entrada $end
$var wire 2 V Nivel [0:1] $end
$var wire 1 W activo $end
$var wire 1 $ clk $end
$var wire 1 X senal_5seg $end
$var parameter 32 Y Parametro $end
$var parameter 32 Z tiempo5seg $end
$var reg 3 [ Contador_5segundos [2:0] $end
$var reg 2 \ Contador_Nivel [0:1] $end
$var reg 4 ] Contador_Tiempo [3:0] $end
$var reg 1 ^ Entrada_Sube_Nivel $end
$var reg 1 _ Entrada_prev $end
$var reg 1 ` senal_5segun $end
$upscope $end
$scope module Modo_Energia $end
$var wire 1 a B_reset $end
$var wire 2 b Nivel [0:1] $end
$var wire 1 ' activo $end
$var wire 1 $ clk $end
$var wire 1 ? senal_5seg $end
$var wire 1 G Entrada $end
$var parameter 32 c Parametro $end
$var parameter 32 d tiempo5seg $end
$var reg 3 e Contador_5segundos [2:0] $end
$var reg 2 f Contador_Nivel [0:1] $end
$var reg 4 g Contador_Tiempo [3:0] $end
$var reg 1 h Entrada_Sube_Nivel $end
$var reg 1 i Entrada_prev $end
$var reg 1 ? senal_5segun $end
$upscope $end
$scope module Modo_Medicina $end
$var wire 1 j B_reset $end
$var wire 2 k Nivel [0:1] $end
$var wire 1 & activo $end
$var wire 1 $ clk $end
$var wire 1 > senal_5seg $end
$var wire 1 F Entrada $end
$var parameter 32 l Parametro $end
$var parameter 32 m tiempo5seg $end
$var reg 3 n Contador_5segundos [2:0] $end
$var reg 2 o Contador_Nivel [0:1] $end
$var reg 4 p Contador_Tiempo [3:0] $end
$var reg 1 q Entrada_Sube_Nivel $end
$var reg 1 r Entrada_prev $end
$var reg 1 > senal_5segun $end
$upscope $end
$scope module utt $end
$var wire 1 ! b_energia $end
$var wire 1 " b_medicina $end
$var wire 1 $ clk $end
$var wire 1 6 reset $end
$var wire 1 7 test $end
$var wire 1 s test_tmp $end
$var wire 1 t reset_tmp $end
$var wire 1 u medicina_tmp $end
$var wire 1 v energia_tmp $end
$var reg 1 G Senal_Energia $end
$var reg 1 F Senal_Medicina $end
$var reg 1 E Senal_Reset $end
$var reg 1 D Senal_Test $end
$scope module B_Energia $end
$var wire 1 ! boton_in $end
$var wire 1 $ clk $end
$var wire 1 6 reset $end
$var parameter 32 w COUNT_BOT $end
$var reg 1 v boton_out $end
$var reg 3 x counter [2:0] $end
$upscope $end
$scope module B_Medicina $end
$var wire 1 " boton_in $end
$var wire 1 $ clk $end
$var wire 1 6 reset $end
$var parameter 32 y COUNT_BOT $end
$var reg 1 u boton_out $end
$var reg 3 z counter [2:0] $end
$upscope $end
$scope module B_Reset $end
$var wire 1 6 boton_in $end
$var wire 1 $ clk $end
$var wire 1 6 reset $end
$var parameter 32 { COUNT_BOT $end
$var reg 1 t boton_out $end
$var reg 3 | counter [2:0] $end
$upscope $end
$scope module B_Test $end
$var wire 1 7 boton_in $end
$var wire 1 $ clk $end
$var wire 1 6 reset $end
$var parameter 32 } COUNT_BOT $end
$var reg 1 s boton_out $end
$var reg 3 ~ counter [2:0] $end
$upscope $end
$upscope $end
$upscope $end
$upscope $end
$upscope $end
$enddefinitions $end
$comment Show the parameter values. $end
$dumpall
b101 }
b101 {
b101 y
b101 w
b111 m
b1010 l
b111 d
b1010 c
b111 Z
b1010 Y
b111 M
b1010 L
b0 2
b1 1
b10 0
b11 /
$end
#0
$dumpvars
b0 ~
b0 |
b0 z
b0 x
0v
0u
0t
0s
0r
0q
b0 p
b11 o
b0 n
b11 k
zj
0i
0h
b0 g
b11 f
b0 e
b11 b
za
0`
0_
0^
b0 ]
b11 \
b0 [
0X
1W
b11 V
1U
zT
0S
0R
0Q
b0 P
b11 O
b0 N
0K
1J
b11 I
zH
0G
0F
0E
0D
b11 C
b11 B
b11 A
b11 @
0?
0>
b11 =
b11 <
b11 ;
b11 :
z9
z8
z7
z6
b0 5
b0 4
b0 3
b11 .
z-
z,
b11 +
b11 *
0)
0(
1'
1&
0%
0$
z#
z"
0!
$end
#1
b1 P
zR
xQ
b1 ]
1_
1^
b1 g
b1 p
1$
#2
0$
#3
b10 p
b10 g
b10 ]
0^
b10 P
1$
#4
0$
#5
b11 P
b11 ]
b11 g
b11 p
1$
#6
0$
#7
b100 p
b100 g
b100 ]
b100 P
1$
#8
0$
#9
b101 P
b101 ]
b101 g
b101 p
1$
#10
0$
#11
b110 p
b110 g
b110 ]
b110 P
1$
#12
0$
#13
b111 P
b111 ]
b111 g
b111 p
1$
#14
0$
#15
b1000 p
b1000 g
b1000 ]
b1000 P
1$
#16
0$
#17
b1001 P
b1001 ]
b1001 g
b1001 p
1$
#18
0$
#19
b1010 p
b1010 g
b1010 ]
b1010 P
1$
#20
0$
#21
b1 3
b0 P
b0 ]
b0 g
b0 p
b10 :
b10 C
b10 I
b10 O
b10 ;
b10 B
b10 V
b10 \
b10 +
b10 .
b10 <
b10 A
b10 b
b10 f
b10 *
b10 =
b10 @
b10 k
b10 o
1$
#22
0$
#23
b1 5
b1 4
b1 p
b1 g
b1 ]
b1 P
1$
#24
0$
#25
b10 P
b10 ]
b10 g
b10 p
1$
#26
0$
#27
b11 p
b11 g
b11 ]
b11 P
1$
#28
0$
#29
b100 P
b100 ]
b100 g
b100 p
1$
#30
0$
#31
b101 p
b101 g
b101 ]
b101 P
1$
#32
0$
#33
b110 P
b110 ]
b110 g
b110 p
1$
#34
0$
#35
b1 x
b111 p
b111 g
b111 ]
b111 P
1$
1!
#36
0$
#37
b10 x
b1000 P
b1000 ]
b1000 g
b1000 p
1$
#38
0$
#39
b11 x
b1001 p
b1001 g
b1001 ]
b1001 P
1$
#40
0$
#41
b100 x
b1010 P
b1010 ]
b1010 g
b1010 p
1$
#42
0$
#43
b0 p
b0 g
b0 ]
b0 P
b101 x
b1 *
b1 =
b1 @
b1 k
b1 o
b1 +
b1 .
b1 <
b1 A
b1 b
b1 f
b1 ;
b1 B
b1 V
b1 \
b1 :
b1 C
b1 I
b1 O
1$
#44
0$
#45
1G
1v
b0 x
b1 P
b1 ]
b1 g
b1 p
1$
#46
0$
#47
b11 3
b0 g
b10 p
1)
1?
b10 e
b10 +
b10 .
b10 <
b10 A
b10 b
b10 f
1i
1h
b10 ]
b10 P
1$
#48
0$
#49
b11 4
b11 5
0&
b11 P
b11 ]
b11 e
b1 g
0h
b11 p
1$
#50
0$
#51
b100 e
b10 g
b100 ]
b100 P
1$
#52
0$
#53
b101 P
b101 ]
b101 e
b11 g
1$
#54
0$
#55
b110 e
b100 g
b110 ]
b110 P
1$
#56
0$
#57
b111 P
b111 ]
b111 e
b101 g
1$
#58
0$
#59
b1 3
b0 e
0)
0?
b110 g
b1000 ]
b1000 P
1$
#60
0$
#61
b1 4
b1 5
1&
b1001 P
b1001 ]
b111 g
1$
#62
0$
#63
b100 p
b1000 g
b1010 ]
b1010 P
1$
#64
0$
#65
b0 P
b0 ]
b0 :
b0 C
b0 I
b0 O
b0 ;
b0 B
b0 V
b0 \
b1001 g
b101 p
1$
#66
0$
#67
b110 p
b1010 g
b1 ]
b1 P
1$
#68
0$
#69
b0 g
b10 P
b10 ]
b1 +
b1 .
b1 <
b1 A
b1 b
b1 f
b111 p
1$
#70
0$
0!
#71
b1 x
b1000 p
b1 g
b11 ]
b11 P
1$
#72
0$
#73
b10 x
b100 P
b100 ]
b10 g
b1001 p
1$
#74
0$
#75
b11 x
b1010 p
b11 g
b101 ]
b101 P
1$
#76
0$
#77
b100 x
b0 p
b110 P
b110 ]
b100 g
b0 *
b0 =
b0 @
b0 k
b0 o
1$
#78
0$
#79
b101 x
b1 p
b101 g
b111 ]
b111 P
1$
#80
0$
#81
0v
b0 x
b1000 P
b1000 ]
b110 g
b10 p
1$
#82
0$
#83
b11 p
b111 g
b1001 ]
b1001 P
1$
#84
0$
#85
b1010 P
b1010 ]
b1000 g
b100 p
1$
#86
0$
#87
b101 p
b1001 g
b1011 ]
b1011 P
1$
#88
0$
#89
b1100 P
b1100 ]
b1010 g
b110 p
1$
#90
0$
#91
b10 3
b0 g
b111 p
b0 +
b0 .
b0 <
b0 A
b0 b
b0 f
b1101 ]
b1101 P
1$
#92
0$
#93
b10 4
b10 5
b1110 P
b1110 ]
b1 g
b1000 p
1$
#94
0$
#95
b1001 p
b10 g
b1111 ]
b1111 P
1$
#96
0$
#97
b0 P
b0 ]
b11 g
b1010 p
1$
#98
0$
#99
b1011 p
b100 g
b1 ]
b1 P
1$
#100
0$
#101
b10 P
b10 ]
b101 g
b1100 p
1$
#102
0$
#103
b1101 p
b110 g
b11 ]
b11 P
1$
#104
0$
#105
b1 x
b100 P
b100 ]
b111 g
b1110 p
1$
1!
#106
0$
#107
b10 x
b1111 p
b1000 g
b101 ]
b101 P
1$
#108
0$
#109
b11 x
b110 P
b110 ]
b1001 g
b0 p
1$
#110
0$
#111
b100 x
b1 p
b1010 g
b111 ]
b111 P
1$
#112
0$
#113
b101 x
b1000 P
b1000 ]
b1011 g
b10 p
1$
#114
0$
#115
0G
1v
b0 x
b11 p
b1100 g
b1001 ]
b1001 P
1$
#116
0$
#117
b11 3
b0 g
b1010 P
b1010 ]
1)
1?
b10 e
b1 +
b1 .
b1 <
b1 A
b1 b
b1 f
0i
1h
b100 p
1$
#118
0$
#119
b11 5
0&
b11 4
b101 p
b11 e
b1 g
0h
b1011 ]
b1011 P
1$
#120
0$
#121
b1100 P
b1100 ]
b100 e
b10 g
1$
#122
0$
#123
b101 e
b11 g
b1101 ]
b1101 P
1$
#124
0$
#125
b1110 P
b1110 ]
b110 e
b100 g
1$
#126
0$
#127
b111 e
b101 g
b1111 ]
b1111 P
1$
#128
0$
#129
b10 3
b0 P
b0 ]
b0 e
0)
0?
b110 g
1$
#130
0$
#131
b10 5
1&
b10 4
b111 g
b1 ]
b1 P
1$
#132
0$
#133
b10 P
b10 ]
b1000 g
b110 p
1$
#134
0$
#135
b111 p
b1001 g
b11 ]
b11 P
1$
#136
0$
#137
b100 P
b100 ]
b1010 g
b1000 p
1$
#138
0$
#139
b0 g
b1001 p
b0 +
b0 .
b0 <
b0 A
b0 b
b0 f
b101 ]
b101 P
1$
#140
0$
0!
#141
b1 x
b110 P
b110 ]
b1 g
b1010 p
1$
#142
0$
#143
b10 x
b1011 p
b10 g
b111 ]
b111 P
1$
#144
0$
#145
b11 x
b1000 P
b1000 ]
b11 g
b1100 p
1$
#146
0$
#147
b100 x
b1101 p
b100 g
b1001 ]
b1001 P
1$
#148
0$
#149
b101 x
b1010 P
b1010 ]
b101 g
b1110 p
1$
#150
0$
#151
0v
b0 x
b1111 p
b110 g
b1011 ]
b1011 P
1$
#152
0$
#153
b1100 P
b1100 ]
b111 g
b0 p
1$
#154
0$
#155
b1 p
b1000 g
b1101 ]
b1101 P
1$
#156
0$
#157
b1110 P
b1110 ]
b1001 g
b10 p
1$
#158
0$
#159
b11 p
b1010 g
b1111 ]
b1111 P
1$
#160
0$
#161
b0 P
b0 ]
b1011 g
b100 p
1$
#162
0$
#163
b101 p
b1100 g
b1 ]
b1 P
1$
#164
0$
#165
b10 P
b10 ]
b1101 g
b110 p
1$
#166
0$
#167
b111 p
b1110 g
b11 ]
b11 P
1$
#168
0$
#169
b100 P
b100 ]
b1111 g
b1000 p
1$
#170
0$
#171
b1001 p
b0 g
b101 ]
b101 P
1$
#172
0$
#173
b110 P
b110 ]
b1 g
b1010 p
1$
#174
0$
#175
b1 x
b1011 p
b10 g
b111 ]
b111 P
1$
1!
#176
0$
#177
b10 x
b1000 P
b1000 ]
b11 g
b1100 p
1$
#178
0$
#179
b11 x
b1101 p
b100 g
b1001 ]
b1001 P
1$
#180
0$
#181
b100 x
b1010 P
b1010 ]
b101 g
b1110 p
1$
#182
0$
#183
b101 x
b1111 p
b110 g
b1011 ]
b1011 P
1$
#184
0$
#185
1G
1v
b0 x
b1100 P
b1100 ]
b111 g
b0 p
1$
#186
0$
#187
b11 3
b0 g
b1 p
1)
1?
b10 e
b1 +
b1 .
b1 <
b1 A
b1 b
b1 f
1i
1h
b1101 ]
b1101 P
1$
#188
0$
#189
b11 4
b11 5
0&
b1110 P
b1110 ]
b11 e
b1 g
0h
b10 p
1$
#190
0$
#191
b100 e
b10 g
b1111 ]
b1111 P
1$
#192
0$
#193
b0 P
b0 ]
b101 e
b11 g
1$
#194
0$
#195
b110 e
b100 g
b1 ]
b1 P
1$
#196
0$
#197
b10 P
b10 ]
b111 e
b101 g
1$
#198
0$
#199
b10 3
b0 e
0)
0?
b110 g
b11 ]
b11 P
1$
#200
0$
#201
b10 4
b10 5
1&
b100 P
b100 ]
b111 g
1$
#202
0$
#203
b11 p
b1000 g
b101 ]
b101 P
1$
#204
0$
#205
b110 P
b110 ]
b1001 g
b100 p
1$
#206
0$
#207
b101 p
b1010 g
b111 ]
b111 P
1$
#208
0$
#209
b0 g
b1000 P
b1000 ]
b0 +
b0 .
b0 <
b0 A
b0 b
b0 f
b110 p
1$
#210
0$
0!
#211
b1 x
b111 p
b1 g
b1001 ]
b1001 P
1$
#212
0$
#213
b10 x
b1010 P
b1010 ]
b10 g
b1000 p
1$
#214
0$
#215
b11 x
b1001 p
b11 g
b1011 ]
b1011 P
1$
#216
0$
#217
b100 x
b1100 P
b1100 ]
b100 g
b1010 p
1$
#218
0$
#219
b101 x
b1011 p
b101 g
b1101 ]
b1101 P
1$
#220
0$
#221
0v
b0 x
b1110 P
b1110 ]
b110 g
b1100 p
1$
#222
0$
#223
b1101 p
b111 g
b1111 ]
b1111 P
1$
#224
0$
#225
b0 P
b0 ]
b1000 g
b1110 p
1$
#226
0$
#227
b1111 p
b1001 g
b1 ]
b1 P
1$
#228
0$
#229
b10 P
b10 ]
b1010 g
b0 p
1$
#230
0$
#231
b1 p
b1011 g
b11 ]
b11 P
1$
#232
0$
#233
b100 P
b100 ]
b1100 g
b10 p
1$
#234
0$
#235
b11 p
b1101 g
b101 ]
b101 P
1$
#236
0$
#237
b110 P
b110 ]
b1110 g
b100 p
1$
#238
0$
#239
b101 p
b1111 g
b111 ]
b111 P
1$
#240
0$
#241
b1000 P
b1000 ]
b0 g
b110 p
1$
#242
0$
#243
b111 p
b1 g
b1001 ]
b1001 P
1$
#244
0$
#245
b1 x
b1010 P
b1010 ]
b10 g
b1000 p
1$
1!
#246
0$
#247
b10 x
b1001 p
b11 g
b1011 ]
b1011 P
1$
#248
0$
#249
b11 x
b1100 P
b1100 ]
b100 g
b1010 p
1$
#250
0$
#251
b100 x
b1011 p
b101 g
b1101 ]
b1101 P
1$
#252
0$
#253
b101 x
b1110 P
b1110 ]
b110 g
b1100 p
1$
#254
0$
#255
0G
1v
b0 x
b1101 p
b111 g
b1111 ]
b1111 P
1$
#256
0$
#257
b11 3
b0 g
b0 P
b0 ]
1)
1?
b10 e
b1 +
b1 .
b1 <
b1 A
b1 b
b1 f
0i
1h
b1110 p
1$
#258
0$
#259
b11 5
0&
b11 4
b1111 p
b11 e
b1 g
0h
b1 ]
b1 P
1$
#260
0$
#261
b10 P
b10 ]
b100 e
b10 g
1$
#262
0$
#263
b101 e
b11 g
b11 ]
b11 P
1$
#264
0$
#265
b100 P
b100 ]
b110 e
b100 g
1$
#266
0$
#267
b111 e
b101 g
b101 ]
b101 P
1$
#268
0$
#269
b10 3
b110 P
b110 ]
b0 e
0)
0?
b110 g
1$
#270
0$
#271
b10 5
1&
b10 4
b111 g
b111 ]
b111 P
1$
#272
0$
#273
b1000 P
b1000 ]
b1000 g
b0 p
1$
#274
0$
#275
b1 p
b1001 g
b1001 ]
b1001 P
1$
#276
0$
#277
b1010 P
b1010 ]
b1010 g
b10 p
1$
#278
0$
#279
b0 g
b11 p
b0 +
b0 .
b0 <
b0 A
b0 b
b0 f
b1011 ]
b1011 P
1$
#280
0$
0!
#281
b1 x
b1100 P
b1100 ]
b1 g
b100 p
1$
#282
0$
#283
b10 x
b101 p
b10 g
b1101 ]
b1101 P
1$
#284
0$
#285
b11 x
b1110 P
b1110 ]
b11 g
b110 p
1$
#286
0$
#287
b100 x
b111 p
b100 g
b1111 ]
b1111 P
1$
#288
0$
#289
b101 x
b0 P
b0 ]
b101 g
b1000 p
1$
#290
0$
#291
0v
b0 x
b1001 p
b110 g
b1 ]
b1 P
1$
#292
0$
#293
b10 P
b10 ]
b111 g
b1010 p
1$
#294
0$
#295
b1011 p
b1000 g
b11 ]
b11 P
1$
#296
0$
#297
b100 P
b100 ]
b1001 g
b1100 p
1$
#298
0$
#299
b1101 p
b1010 g
b101 ]
b101 P
1$
#300
0$
#301
b110 P
b110 ]
b1011 g
b1110 p
1$
#302
0$
#303
b1111 p
b1100 g
b111 ]
b111 P
1$
#304
0$
#305
b1000 P
b1000 ]
b1101 g
b0 p
1$
#306
0$
#307
b1 p
b1110 g
b1001 ]
b1001 P
1$
#308
0$
#309
b1010 P
b1010 ]
b1111 g
b10 p
1$
#310
0$
#311
b11 p
b0 g
b1011 ]
b1011 P
1$
#312
0$
#313
b1100 P
b1100 ]
b1 g
b100 p
1$
#314
0$
#315
b1 x
b101 p
b10 g
b1101 ]
b1101 P
1$
1!
#316
0$
#317
b10 x
b1110 P
b1110 ]
b11 g
b110 p
1$
#318
0$
#319
b11 x
b111 p
b100 g
b1111 ]
b1111 P
1$
#320
0$
#321
b100 x
b0 P
b0 ]
b101 g
b1000 p
1$
#322
0$
#323
b101 x
b1001 p
b110 g
b1 ]
b1 P
1$
#324
0$
#325
1G
1v
b0 x
b10 P
b10 ]
b111 g
b1010 p
1$
#326
0$
#327
b11 3
b0 g
b1011 p
1)
1?
b10 e
b1 +
b1 .
b1 <
b1 A
b1 b
b1 f
1i
1h
b11 ]
b11 P
1$
#328
0$
#329
b11 4
b11 5
0&
b100 P
b100 ]
b11 e
b1 g
0h
b1100 p
1$
#330
0$
#331
b100 e
b10 g
b101 ]
b101 P
1$
#332
0$
#333
b110 P
b110 ]
b101 e
b11 g
1$
#334
0$
#335
b110 e
b100 g
b111 ]
b111 P
1$
#336
0$
#337
b1000 P
b1000 ]
b111 e
b101 g
1$
#338
0$
#339
b10 3
b0 e
0)
0?
b110 g
b1001 ]
b1001 P
1$
#340
0$
#341
b10 4
b10 5
1&
b1010 P
b1010 ]
b111 g
1$
#342
0$
#343
b1101 p
b1000 g
b1011 ]
b1011 P
1$
#344
0$
#345
b1100 P
b1100 ]
b1001 g
b1110 p
1$
#346
0$
#347
b1111 p
b1010 g
b1101 ]
b1101 P
1$
#348
0$
#349
b0 g
b1110 P
b1110 ]
b0 +
b0 .
b0 <
b0 A
b0 b
b0 f
b0 p
1$
#350
0$
0!
#351
b1 x
b1 p
b1 g
b1111 ]
b1111 P
1$
#352
0$
#353
b10 x
b0 P
b0 ]
b10 g
b10 p
1$
#354
0$
#355
b11 x
b11 p
b11 g
b1 ]
b1 P
1$
#356
0$
#357
b100 x
b10 P
b10 ]
b100 g
b100 p
1$
#358
0$
#359
b101 x
b101 p
b101 g
b11 ]
b11 P
1$
#360
0$
#361
0v
b0 x
b100 P
b100 ]
b110 g
b110 p
1$
#362
0$
#363
b111 p
b111 g
b101 ]
b101 P
1$
#364
0$
#365
b110 P
b110 ]
b1000 g
b1000 p
1$
#366
0$
#367
b1001 p
b1001 g
b111 ]
b111 P
1$
#368
0$
#369
b1000 P
b1000 ]
b1010 g
b1010 p
1$
#370
0$
#371
b1011 p
b1011 g
b1001 ]
b1001 P
1$
#372
0$
#373
b1010 P
b1010 ]
b1100 g
b1100 p
1$
#374
0$
#375
b1101 p
b1101 g
b1011 ]
b1011 P
1$
#376
0$
#377
b1100 P
b1100 ]
b1110 g
b1110 p
1$
#378
0$
#379
b1111 p
b1111 g
b1101 ]
b1101 P
1$
#380
0$
#381
b1110 P
b1110 ]
b0 g
b0 p
1$
#382
0$
#383
b1 p
b1 g
b1111 ]
b1111 P
1$
#384
0$
#385
b1 x
b0 P
b0 ]
b10 g
b10 p
1$
1!
#386
0$
#387
b10 x
b11 p
b11 g
b1 ]
b1 P
1$
#388
0$
#389
b11 x
b10 P
b10 ]
b100 g
b100 p
1$
#390
0$
#391
b100 x
b101 p
b101 g
b11 ]
b11 P
1$
#392
0$
#393
b101 x
b100 P
b100 ]
b110 g
b110 p
1$
#394
0$
#395
0G
1v
b0 x
b111 p
b111 g
b101 ]
b101 P
1$
#396
0$
#397
b11 3
b0 g
b110 P
b110 ]
1)
1?
b10 e
b1 +
b1 .
b1 <
b1 A
b1 b
b1 f
0i
1h
b1000 p
1$
#398
0$
#399
b11 5
0&
b11 4
b1001 p
b11 e
b1 g
0h
b111 ]
b111 P
1$
#400
0$
#401
b1000 P
b1000 ]
b100 e
b10 g
1$
#402
0$
#403
b101 e
b11 g
b1001 ]
b1001 P
1$
#404
0$
#405
b1010 P
b1010 ]
b110 e
b100 g
1$
#406
0$
#407
b111 e
b101 g
b1011 ]
b1011 P
1$
#408
0$
#409
b10 3
b1100 P
b1100 ]
b0 e
0)
0?
b110 g
1$
#410
0$
#411
b10 5
1&
b10 4
b111 g
b1101 ]
b1101 P
1$
#412
0$
#413
b1110 P
b1110 ]
b1000 g
b1010 p
1$
#414
0$
#415
b1011 p
b1001 g
b1111 ]
b1111 P
1$
#416
0$
#417
b0 P
b0 ]
b1010 g
b1100 p
1$
#418
0$
#419
b0 g
b1101 p
b0 +
b0 .
b0 <
b0 A
b0 b
b0 f
b1 ]
b1 P
1$
#420
0$
0!
#421
b1 x
b10 P
b10 ]
b1 g
b1110 p
1$
#422
0$
#423
b10 x
b1111 p
b10 g
b11 ]
b11 P
1$
#424
0$
#425
b11 x
b100 P
b100 ]
b11 g
b0 p
1$
#426
0$
#427
b100 x
b1 p
b100 g
b101 ]
b101 P
1$
#428
0$
#429
b101 x
b110 P
b110 ]
b101 g
b10 p
1$
#430
0$
#431
0v
b0 x
b11 p
b110 g
b111 ]
b111 P
1$
#432
0$
#433
b1000 P
b1000 ]
b111 g
b100 p
1$
#434
0$
#435
b101 p
b1000 g
b1001 ]
b1001 P
1$
#436
0$
#437
b1010 P
b1010 ]
b1001 g
b110 p
1$
#438
0$
#439
b111 p
b1010 g
b1011 ]
b1011 P
1$
#440
0$
#441
b1100 P
b1100 ]
b1011 g
b1000 p
1$
#442
0$
#443
b1001 p
b1100 g
b1101 ]
b1101 P
1$
#444
0$
#445
b1110 P
b1110 ]
b1101 g
b1010 p
1$
#446
0$
#447
b1011 p
b1110 g
b1111 ]
b1111 P
1$
#448
0$
#449
b0 P
b0 ]
b1111 g
b1100 p
1$
#450
0$
#451
b1101 p
b0 g
b1 ]
b1 P
1$
#452
0$
#453
b10 P
b10 ]
b1 g
b1110 p
1$
#454
0$
#455
b1 x
b1111 p
b10 g
b11 ]
b11 P
1$
1!
#456
0$
#457
b10 x
b100 P
b100 ]
b11 g
b0 p
1$
#458
0$
#459
b11 x
b1 p
b100 g
b101 ]
b101 P
1$
#460
0$
#461
b100 x
b110 P
b110 ]
b101 g
b10 p
1$
#462
0$
#463
b101 x
b11 p
b110 g
b111 ]
b111 P
1$
#464
0$
#465
1G
1v
b0 x
b1000 P
b1000 ]
b111 g
b100 p
1$
#466
0$
#467
b11 3
b0 g
b101 p
1)
1?
b10 e
b1 +
b1 .
b1 <
b1 A
b1 b
b1 f
1i
1h
b1001 ]
b1001 P
1$
#468
0$
#469
b11 4
b11 5
0&
b1010 P
b1010 ]
b11 e
b1 g
0h
b110 p
1$
#470
0$
#471
b100 e
b10 g
b1011 ]
b1011 P
1$
#472
0$
#473
b1100 P
b1100 ]
b101 e
b11 g
1$
#474
0$
#475
b110 e
b100 g
b1101 ]
b1101 P
1$
#476
0$
#477
b1110 P
b1110 ]
b111 e
b101 g
1$
#478
0$
#479
b10 3
b0 e
0)
0?
b110 g
b1111 ]
b1111 P
1$
#480
0$
#481
b10 4
b10 5
1&
b0 P
b0 ]
b111 g
1$
#482
0$
#483
b111 p
b1000 g
b1 ]
b1 P
1$
#484
0$
#485
b10 P
b10 ]
b1001 g
b1000 p
1$
#486
0$
#487
b1001 p
b1010 g
b11 ]
b11 P
1$
#488
0$
#489
b0 g
b100 P
b100 ]
b0 +
b0 .
b0 <
b0 A
b0 b
b0 f
b1010 p
1$
#490
0$
0!
#491
b1 x
b1011 p
b1 g
b101 ]
b101 P
1$
#492
0$
#493
b10 x
b110 P
b110 ]
b10 g
b1100 p
1$
#494
0$
#495
b11 x
b1101 p
b11 g
b111 ]
b111 P
1$
#496
0$
#497
b100 x
b1000 P
b1000 ]
b100 g
b1110 p
1$
#498
0$
#499
b101 x
b1111 p
b101 g
b1001 ]
b1001 P
1$
#500
0$
x%
#501
0v
b0 x
b1010 P
b1010 ]
b110 g
b0 p
1$
#502
0$
#503
b1 p
b111 g
b1011 ]
b1011 P
1$
#504
0$
#505
b1100 P
b1100 ]
b1000 g
b10 p
1$
#506
0$
#507
b11 p
b1001 g
b1101 ]
b1101 P
1$
#508
0$
#509
b1110 P
b1110 ]
b1010 g
b100 p
1$
#510
0$
#511
b101 p
b1011 g
b1111 ]
b1111 P
1$
#512
0$
#513
b0 P
b0 ]
b1100 g
b110 p
1$
#514
0$
#515
b111 p
b1101 g
b1 ]
b1 P
1$
#516
0$
#517
b10 P
b10 ]
b1110 g
b1000 p
1$
#518
0$
#519
b1001 p
b1111 g
b11 ]
b11 P
1$
#520
0$
#521
b100 P
b100 ]
b0 g
b1010 p
1$
#522
0$
#523
b1011 p
b1 g
b101 ]
b101 P
1$
#524
0$
#525
b1 x
b110 P
b110 ]
b10 g
b1100 p
1$
1!
#526
0$
#527
b10 x
b1101 p
b11 g
b111 ]
b111 P
1$
#528
0$
#529
b11 x
b1000 P
b1000 ]
b100 g
b1110 p
1$
#530
0$
#531
b100 x
b1111 p
b101 g
b1001 ]
b1001 P
1$
#532
0$
#533
b101 x
b1010 P
b1010 ]
b110 g
b0 p
1$
#534
0$
#535
0G
1v
b0 x
b1 p
b111 g
b1011 ]
b1011 P
1$
#536
0$
#537
b11 3
b0 g
b1100 P
b1100 ]
1)
1?
b10 e
b1 +
b1 .
b1 <
b1 A
b1 b
b1 f
0i
1h
b10 p
1$
#538
0$
#539
b11 5
0&
b11 4
b11 p
b11 e
b1 g
0h
b1101 ]
b1101 P
1$
#540
0$
#541
b1110 P
b1110 ]
b100 e
b10 g
1$
#542
0$
#543
b101 e
b11 g
b1111 ]
b1111 P
1$
#544
0$
#545
b0 P
b0 ]
b110 e
b100 g
1$
#546
0$
#547
b111 e
b101 g
b1 ]
b1 P
1$
#548
0$
#549
b10 3
b10 P
b10 ]
b0 e
0)
0?
b110 g
1$
#550
0$
#551
b10 5
1&
b10 4
b111 g
b11 ]
b11 P
1$
#552
0$
#553
b100 P
b100 ]
b1000 g
b100 p
1$
#554
0$
