codigos/Testbench/Ultima_prueba/build/Maq_Est_Y_Modos.vcd
$date
	Mon Sep 02 21:04:24 2024
$end
$version
	Icarus Verilog
$end
$timescale
	1ps
$end
$scope module Maq_Est_Y_Modos_TB $end
$scope module uut $end
$var wire 1 ! Boton_Comida $end
$var wire 1 " Boton_Medicina $end
$var wire 1 # Boton_Test $end
$var wire 1 $ Foto_celda $end
$var wire 1 % Ultra_sonido $end
$var wire 1 & clk $end
$var wire 1 ' reset $end
$var wire 7 ( sseg [0:6] $end
$var wire 1 ) spi_sck $end
$var wire 1 * spi_mosi $end
$var wire 1 + spi_dc $end
$var wire 1 , spi_cs $end
$var wire 5 - an [4:0] $end
$var wire 4 . Visualizacion [3:0] $end
$var wire 16 / Siete_Segmentos [0:15] $end
$var wire 1 0 Senal_Test $end
$var wire 1 1 Senal_Reset $end
$var wire 1 2 Senal_MTest $end
$var wire 1 3 Senal_Activo_Medicina $end
$var wire 1 4 Senal_Activo_Descanso $end
$var wire 1 5 Senal_Activo_Comida $end
$var wire 1 6 Senal_Activo_Animo $end
$var wire 1 7 Senal_5Seg_Medicina $end
$var wire 1 8 Senal_5Seg_Descanso $end
$var wire 1 9 Senal_5Seg_Comida $end
$var wire 1 : Senal_5Seg_Animo $end
$var wire 2 ; Cable_Niveles_Medicina [1:0] $end
$var wire 2 < Cable_Niveles_Descanso [1:0] $end
$var wire 2 = Cable_Niveles_Comida [1:0] $end
$var wire 2 > Cable_Niveles_Animo [1:0] $end
$scope module Display_MyM $end
$var wire 1 & clk $end
$var wire 1 ? led $end
$var wire 7 @ sseg [0:6] $end
$var wire 1 1 rst $end
$var wire 16 A num [15:0] $end
$var wire 1 B enable $end
$var reg 5 C an [4:0] $end
$var reg 4 D bcd [3:0] $end
$var reg 27 E cfreq [26:0] $end
$var reg 3 F count [2:0] $end
$var reg 4 G digit_0 [3:0] $end
$var reg 4 H digit_1 [3:0] $end
$var reg 4 I digit_2 [3:0] $end
$var reg 4 J digit_3 [3:0] $end
$var reg 4 K digit_4 [3:0] $end
$scope module bcdtosseg $end
$var wire 4 L BCD [3:0] $end
$var wire 4 M an [3:0] $end
$var reg 7 N SSeg [0:6] $end
$upscope $end
$upscope $end
$scope module ili9341 $end
$var wire 1 & clk $end
$var wire 4 O visua [3:0] $end
$var wire 1 ) spi_sck $end
$var wire 1 * spi_mosi $end
$var wire 1 + spi_dc $end
$var wire 1 , spi_cs $end
$var wire 1 1 rst $end
$var wire 1 P clk_out $end
$var wire 1 Q clk_input_data $end
$var parameter 32 R CARINO $end
$var parameter 32 S DEPRIMIDO $end
$var parameter 32 T IDLE $end
$var parameter 32 U IMAGENES $end
$var parameter 32 V MUERTO $end
$var parameter 32 W PIXEL_SIZE $end
$var parameter 64 X RESOLUTION $end
$var parameter 32 Y TRISTE $end
$var reg 1 Z Nueva_imagen $end
$var reg 16 [ current_pixel [15:0] $end
$var reg 3 \ fsm_state [2:0] $end
$var reg 16 ] imagen [15:0] $end
$var reg 3 ^ next_state [2:0] $end
$var reg 17 _ pixel_counter [16:0] $end
$var reg 3 ` prev_visua [2:0] $end
$var reg 1 a transmission_done $end
$scope module freq_divider20MHz $end
$var wire 1 & clk $end
$var wire 1 1 rst $end
$var parameter 32 b DIVIDER $end
$var reg 1 P clk_out $end
$var reg 2 c counter [1:0] $end
$upscope $end
$scope module ili9341 $end
$var wire 1 P clk $end
$var wire 1 d en_delay_100ms $end
$var wire 1 a frame_done $end
$var wire 16 e input_data [15:0] $end
$var wire 1 ) spi_sck $end
$var wire 1 * spi_mosi $end
$var wire 1 + spi_dc $end
$var wire 1 , spi_cs $end
$var wire 1 1 rst $end
$var wire 1 f idle $end
$var wire 1 Q data_clk $end
$var parameter 32 g DATA_SIZE $end
$var parameter 32 h DELAY_100ms $end
$var parameter 32 i DISPLAY_ON $end
$var parameter 32 j FRAME_LOOP $end
$var parameter 8 k ILI9341_BKCR1 $end
$var parameter 8 l ILI9341_BKCR2 $end
$var parameter 8 m ILI9341_BKCR3 $end
$var parameter 8 n ILI9341_BKCR4 $end
$var parameter 8 o ILI9341_BKCR5 $end
$var parameter 8 p ILI9341_BKCR7 $end
$var parameter 8 q ILI9341_BKCR8 $end
$var parameter 8 r ILI9341_CASET $end
$var parameter 8 s ILI9341_COLMODPIXFMT $end
$var parameter 8 t ILI9341_DINVOFF $end
$var parameter 8 u ILI9341_DINVON $end
$var parameter 8 v ILI9341_DISCTRL $end
$var parameter 8 w ILI9341_DISPOFF $end
$var parameter 8 x ILI9341_DISPON $end
$var parameter 8 y ILI9341_ETMOD $end
$var parameter 8 z ILI9341_FRMCRN1 $end
$var parameter 8 { ILI9341_FRMCRN2 $end
$var parameter 8 | ILI9341_FRMCRN3 $end
$var parameter 8 } ILI9341_GAMMASET $end
$var parameter 8 ~ ILI9341_GMCTRN1 $end
$var parameter 8 !" ILI9341_GMCTRP1 $end
$var parameter 8 "" ILI9341_IDMOFF $end
$var parameter 8 #" ILI9341_IDMON $end
$var parameter 8 $" ILI9341_INVTR $end
$var parameter 8 %" ILI9341_LCD_3GAMMA_EN $end
$var parameter 8 &" ILI9341_LCD_DTCA $end
$var parameter 8 '" ILI9341_LCD_DTCB $end
$var parameter 8 (" ILI9341_LCD_POWERA $end
$var parameter 8 )" ILI9341_LCD_POWERB $end
$var parameter 8 *" ILI9341_LCD_POWER_SEQ $end
$var parameter 8 +" ILI9341_LCD_PRC $end
$var parameter 8 ," ILI9341_MADCTL $end
$var parameter 8 -" ILI9341_NORON $end
$var parameter 8 ." ILI9341_PASET $end
$var parameter 8 /" ILI9341_PLTAR $end
$var parameter 8 0" ILI9341_PRCTR $end
$var parameter 8 1" ILI9341_PTLON $end
$var parameter 8 2" ILI9341_PWCTR1 $end
$var parameter 8 3" ILI9341_PWCTR2 $end
$var parameter 8 4" ILI9341_PWCTR3 $end
$var parameter 8 5" ILI9341_PWCTR4 $end
$var parameter 8 6" ILI9341_PWCTR5 $end
$var parameter 8 7" ILI9341_RAMRD $end
$var parameter 8 8" ILI9341_RAMWR $end
$var parameter 8 9" ILI9341_RGBSET $end
$var parameter 8 :" ILI9341_RMCON $end
$var parameter 8 ;" ILI9341_SLPIN $end
$var parameter 8 <" ILI9341_SLPOUT $end
$var parameter 8 =" ILI9341_SWRESET $end
$var parameter 8 >" ILI9341_TEOFF $end
$var parameter 8 ?" ILI9341_TEON $end
$var parameter 8 @" ILI9341_VMCTR1 $end
$var parameter 8 A" ILI9341_VMCTR2 $end
$var parameter 8 B" ILI9341_VSCRADD $end
$var parameter 8 C" ILI9341_VSCRDEF $end
$var parameter 8 D" ILI9341_WMCON $end
$var parameter 32 E" INIT_SEQ_LEN $end
$var parameter 8 F" MADCTL_BGR $end
$var parameter 8 G" MADCTL_MH $end
$var parameter 8 H" MADCTL_ML $end
$var parameter 8 I" MADCTL_MV $end
$var parameter 8 J" MADCTL_MX $end
$var parameter 8 K" MADCTL_MY $end
$var parameter 8 L" MADCTL_RGB $end
$var parameter 32 M" PIXEL_SIZE $end
$var parameter 32 N" SEND_CONFIG $end
$var parameter 32 O" SEND_INIT $end
$var parameter 32 P" SET_ADRRESS $end
$var parameter 32 Q" SET_ROTATION $end
$var parameter 32 R" START $end
$var parameter 32 S" STATES $end
$var parameter 32 T" WAIT1 $end
$var parameter 32 U" WAIT2 $end
$var parameter 32 V" WAIT3 $end
$var parameter 32 W" WAIT_FRAME $end
$var reg 1 X" available_data $end
$var reg 7 Y" config_counter [6:0] $end
$var reg 1 Z" data_byte_flag $end
$var reg 22 [" delay_counter [21:0] $end
$var reg 4 \" fsm_state [3:0] $end
$var reg 4 ]" next_config [3:0] $end
$var reg 4 ^" next_state [3:0] $end
$var reg 9 _" spi_data [8:0] $end
$scope module spi $end
$var wire 1 X" available_data $end
$var wire 1 P clk $end
$var wire 9 `" input_data [8:0] $end
$var wire 1 ) spi_sck $end
$var wire 1 , spi_cs $end
$var wire 1 1 rst $end
$var wire 8 a" real_data [0:7] $end
$var wire 1 b" dc $end
$var parameter 32 c" DATA_SIZE $end
$var reg 1 d" cs_reg $end
$var reg 3 e" data_bit_counter [0:2] $end
$var reg 9 f" data_reg [8:0] $end
$var reg 1 f idle $end
$var reg 1 g" sck_reg $end
$var reg 1 + spi_dc $end
$var reg 1 * spi_mosi $end
$upscope $end
$upscope $end
$upscope $end
$scope module maq_est $end
$var wire 1 & clk $end
$var wire 1 1 reset $end
$var wire 1 : Sensor_UltraSonido $end
$var wire 1 8 Sensor_Luz $end
$var wire 1 0 Senal_Test $end
$var wire 1 2 Senal_MTest $end
$var wire 2 h" Nivel_Salud [1:0] $end
$var wire 2 i" Nivel_Descanso [1:0] $end
$var wire 2 j" Nivel_Comida [1:0] $end
$var wire 2 k" Nivel_Animo [1:0] $end
$var wire 1 7 Boton_Medicina $end
$var wire 1 9 Boton_Comida $end
$var parameter 4 l" Estado_Cansado $end
$var parameter 4 m" Estado_Carisia $end
$var parameter 4 n" Estado_Comiendo $end
$var parameter 4 o" Estado_Depresion $end
$var parameter 4 p" Estado_Desnutrido $end
$var parameter 4 q" Estado_Desvelo $end
$var parameter 4 r" Estado_Dormido $end
$var parameter 4 s" Estado_Fiebre $end
$var parameter 4 t" Estado_Hambre $end
$var parameter 4 u" Estado_IDLE $end
$var parameter 4 v" Estado_Muerte $end
$var parameter 4 w" Estado_Pildora $end
$var parameter 4 x" Estado_Tos $end
$var parameter 4 y" Estado_Triste $end
$var reg 1 5 Activo_Comida $end
$var reg 1 3 Activo_Medicina $end
$var reg 1 4 Activo_SensorLuz $end
$var reg 1 6 Activo_UltraSonido $end
$var reg 1 z" B_test_prev $end
$var reg 4 {" Count_test [3:0] $end
$var reg 4 |" Estado_Siguiente [3:0] $end
$var reg 4 }" Estados [3:0] $end
$var reg 16 ~" Salida_7seg [0:15] $end
$var reg 4 !# Visualizacion [3:0] $end
$var reg 1 "# flanco_test $end
$upscope $end
$scope module mods $end
$var wire 1 ## Activ $end
$var wire 1 6 Activo_Carisia $end
$var wire 1 5 Activo_Comida $end
$var wire 1 4 Activo_Descanso $end
$var wire 1 3 Activo_Medicina $end
$var wire 1 $# B_reset $end
$var wire 1 ! Bot_Energia $end
$var wire 1 " Bot_Medicina $end
$var wire 1 ' Bot_Reset $end
$var wire 1 # Bot_Test $end
$var wire 1 % Entrada_Animo $end
$var wire 1 $ Entrada_Descanso $end
$var wire 2 %# LED_Animo [0:1] $end
$var wire 2 &# LED_Descanso [0:1] $end
$var wire 2 '# LED_Energia [0:1] $end
$var wire 2 (# LED_Medicina [0:1] $end
$var wire 1 1 Reset_General $end
$var wire 1 & clk $end
$var wire 1 7 senal_5segMedicina $end
$var wire 1 9 senal_5segEnergia $end
$var wire 1 8 senal_5segDescanso $end
$var wire 1 : senal_5segAnimo $end
$var wire 1 0 Senal_Test $end
$var wire 1 2 Senal_MTest $end
$var wire 1 )# S_ultra $end
$var wire 1 *# S_fotocel $end
$var wire 2 +# Nivel_Medicina [0:1] $end
$var wire 2 ,# Nivel_Energia [0:1] $end
$var wire 2 -# Nivel_Descanso [0:1] $end
$var wire 2 .# Nivel_Animo [0:1] $end
$var wire 1 /# B_Reset $end
$var wire 1 0# B_Medicina $end
$var wire 1 1# B_Energia $end
$scope module Modo_Animo $end
$var wire 1 ' B_reset $end
$var wire 2 2# Nivel [0:1] $end
$var wire 1 ## activo $end
$var wire 1 & clk $end
$var wire 1 : senal_5seg $end
$var wire 1 )# Entrada $end
$var parameter 32 3# Parametro $end
$var parameter 32 4# tiempo5seg $end
$var reg 3 5# Contador_5segundos [2:0] $end
$var reg 2 6# Contador_Nivel [0:1] $end
$var reg 4 7# Contador_Tiempo [3:0] $end
$var reg 1 8# Entrada_Sube_Nivel $end
$var reg 1 9# Entrada_prev $end
$var reg 1 :# senal_5segun $end
$upscope $end
$scope module Modo_Descanso $end
$var wire 1 ' B_reset $end
$var wire 2 ;# Nivel [0:1] $end
$var wire 1 4 activo $end
$var wire 1 & clk $end
$var wire 1 8 senal_5seg $end
$var wire 1 *# Entrada $end
$var parameter 32 <# Parametro $end
$var parameter 32 =# tiempo5seg $end
$var reg 3 ># Contador_5segundos [2:0] $end
$var reg 2 ?# Contador_Nivel [0:1] $end
$var reg 4 @# Contador_Tiempo [3:0] $end
$var reg 1 A# Entrada_Sube_Nivel $end
$var reg 1 B# Entrada_prev $end
$var reg 1 C# senal_5segun $end
$upscope $end
$scope module Modo_Energia $end
$var wire 1 ' B_reset $end
$var wire 2 D# Nivel [0:1] $end
$var wire 1 5 activo $end
$var wire 1 & clk $end
$var wire 1 9 senal_5seg $end
$var wire 1 1# Entrada $end
$var parameter 32 E# Parametro $end
$var parameter 32 F# tiempo5seg $end
$var reg 3 G# Contador_5segundos [2:0] $end
$var reg 2 H# Contador_Nivel [0:1] $end
$var reg 4 I# Contador_Tiempo [3:0] $end
$var reg 1 J# Entrada_Sube_Nivel $end
$var reg 1 K# Entrada_prev $end
$var reg 1 L# senal_5segun $end
$upscope $end
$scope module Modo_Medicina $end
$var wire 1 ' B_reset $end
$var wire 2 M# Nivel [0:1] $end
$var wire 1 3 activo $end
$var wire 1 & clk $end
$var wire 1 7 senal_5seg $end
$var wire 1 0# Entrada $end
$var parameter 32 N# Parametro $end
$var parameter 32 O# tiempo5seg $end
$var reg 3 P# Contador_5segundos [2:0] $end
$var reg 2 Q# Contador_Nivel [0:1] $end
$var reg 4 R# Contador_Tiempo [3:0] $end
$var reg 1 S# Entrada_Sube_Nivel $end
$var reg 1 T# Entrada_prev $end
$var reg 1 U# senal_5segun $end
$upscope $end
$scope module utt $end
$var wire 1 ! b_energia $end
$var wire 1 " b_medicina $end
$var wire 1 & clk $end
$var wire 1 ' reset $end
$var wire 1 $ sensor_fot_in $end
$var wire 1 % sensor_ult_in $end
$var wire 1 # test $end
$var wire 1 V# test_tmp $end
$var wire 1 W# testMT_tmp $end
$var wire 1 X# sensor_ult_out $end
$var wire 1 Y# sensor_fot_out $end
$var wire 1 /# reset_tmp $end
$var wire 1 Z# medicina_tmp $end
$var wire 1 [# energia_tmp $end
$var reg 1 0 Senal_Btest_BAR $end
$var reg 1 1# Senal_Energia $end
$var reg 1 0# Senal_Medicina $end
$var reg 1 *# Senal_fot $end
$var reg 1 2 Senal_test_activado $end
$var reg 1 )# Senal_ultrasonido $end
$scope module B_Energia $end
$var wire 1 ! boton_in $end
$var wire 1 & clk $end
$var wire 1 ' reset $end
$var parameter 32 \# COUNT_BOT $end
$var reg 1 [# boton_out $end
$var reg 3 ]# counter [2:0] $end
$upscope $end
$scope module B_MTest $end
$var wire 1 # boton_in $end
$var wire 1 & clk $end
$var wire 1 ' reset $end
$var parameter 32 ^# COUNT_BOT $end
$var reg 1 W# boton_out $end
$var reg 4 _# counter [3:0] $end
$upscope $end
$scope module B_Medicina $end
$var wire 1 " boton_in $end
$var wire 1 & clk $end
$var wire 1 ' reset $end
$var parameter 32 `# COUNT_BOT $end
$var reg 1 Z# boton_out $end
$var reg 3 a# counter [2:0] $end
$upscope $end
$scope module B_Reset $end
$var wire 1 & clk $end
$var wire 1 b# reset $end
$var wire 1 ' sensor_in $end
$var parameter 32 c# COUNT_BOT $end
$var reg 3 d# counter [2:0] $end
$var reg 1 /# sensor_out $end
$upscope $end
$scope module B_Test $end
$var wire 1 # boton_in $end
$var wire 1 & clk $end
$var wire 1 ' reset $end
$var parameter 32 e# COUNT_BOT $end
$var reg 1 V# boton_out $end
$var reg 3 f# counter [2:0] $end
$upscope $end
$scope module Sensor_fotocel $end
$var wire 1 & clk $end
$var wire 1 ' reset $end
$var wire 1 $ sensor_in $end
$var parameter 32 g# COUNT_BOT $end
$var reg 4 h# counter [3:0] $end
$var reg 1 Y# sensor_out $end
$upscope $end
$scope module Sensor_ultrasonido $end
$var wire 1 & clk $end
$var wire 1 ' reset $end
$var wire 1 % sensor_in $end
$var parameter 32 i# COUNT_BOT $end
$var reg 4 j# counter [3:0] $end
$var reg 1 X# sensor_out $end
$upscope $end
$upscope $end
$upscope $end
$upscope $end
$upscope $end
$enddefinitions $end
$comment Show the parameter values. $end
$dumpall
b1010 i#
b1010 g#
b101 e#
b101 c#
b101 `#
b1010 ^#
b101 \#
b111 O#
b1010 N#
b111 F#
b1010 E#
b111 =#
b1010 <#
b111 4#
b1010 3#
b1010 y"
b100 x"
b110 w"
b1101 v"
b0 u"
b1 t"
b101 s"
b1001 r"
b1000 q"
b10 p"
b1011 o"
b11 n"
b1100 m"
b111 l"
b1001 c"
b1010 W"
b110 V"
b100 U"
b10 T"
b1100 S"
b0 R"
b111 Q"
b1000 P"
b1 O"
b11 N"
b10000 M"
b0 L"
b10000000 K"
b1000000 J"
b100000 I"
b10000 H"
b100 G"
b1000 F"
b1010100 E"
b111100 D"
b110011 C"
b110111 B"
b11000111 A"
b11000101 @"
b110101 ?"
b110100 >"
b1 ="
b10001 <"
b10000 ;"
b111110 :"
b101101 9"
b101100 8"
b101110 7"
b11000100 6"
b11000011 5"
b11000010 4"
b11000001 3"
b11000000 2"
b10010 1"
b10110101 0"
b110000 /"
b101011 ."
b10011 -"
b110110 ,"
b11110111 +"
b11101101 *"
b11001111 )"
b11001011 ("
b11101010 '"
b11101000 &"
b11110010 %"
b10110100 $"
b111001 #"
b111000 ""
b11100000 !"
b11100001 ~
b100110 }
b10110011 |
b10110010 {
b10110001 z
b10110111 y
b101001 x
b101000 w
b10110110 v
b100001 u
b100000 t
b111010 s
b101010 r
b10111111 q
b10111110 p
b10111100 o
b10111011 n
b10111010 m
b10111001 l
b10111000 k
b1001 j
b101 i
b1001100010010110100000 h
b1001 g
b11 b
b1 Y
b10010110000000000 X
b10000 W
b100 V
b101 U
b0 T
b11 S
b10 R
$end
#0
$dumpvars
b0 j#
b0 h#
b0 f#
b0 d#
1b#
b0 a#
b0 _#
b0 ]#
1[#
1Z#
1Y#
1X#
1W#
1V#
0U#
0T#
0S#
b0 R#
b11 Q#
b0 P#
b11 M#
0L#
0K#
0J#
b0 I#
b11 H#
b0 G#
b11 D#
0C#
0B#
0A#
b0 @#
b11 ?#
b0 >#
b11 ;#
0:#
09#
08#
b0 7#
b11 6#
b0 5#
b11 2#
01#
00#
1/#
b11 .#
b11 -#
b11 ,#
b11 +#
0*#
0)#
b11 (#
b11 '#
b11 &#
b11 %#
z$#
z##
0"#
b0 !#
b0 ~"
b0 }"
b0 |"
b0 {"
0z"
b11 k"
b11 j"
b11 i"
b11 h"
1g"
b0 f"
b0 e"
0d"
0b"
b0 a"
b0 `"
b0 _"
b1 ^"
b0 ]"
b0 \"
b0 ["
1Z"
b0 Y"
0X"
1f
b0 e
0d
bx c
0a
bx `
b0 _
b0 ^
b11111111111 ]
b0 \
b0 [
xZ
0Q
xP
b0 O
b1 N
b1110 M
b0 L
bx K
bx J
bx I
bx H
bx G
b0 F
b0 E
b0 D
bx C
0B
b0 A
b1 @
0?
b11 >
b11 =
b11 <
b11 ;
0:
09
08
07
16
15
14
13
02
11
00
b0 /
b0 .
bx -
1,
1+
0*
0)
b1 (
1'
0&
x%
x$
x#
0"
0!
$end
#1000
b1 a#
b1 ]#
b1 E
b1 @#
b1 I#
b1 R#
1&
#2000
0&
#3000
b10 E
b10 ]#
b10 a#
b10 R#
b10 I#
b10 @#
1&
#4000
0&
#5000
b11 a#
b11 ]#
b11 E
b11 @#
b11 I#
b11 R#
1&
#6000
0&
#7000
b100 E
b100 ]#
b100 a#
b100 R#
b100 I#
b100 @#
1&
#8000
0&
#9000
b101 a#
b101 ]#
b101 E
b101 @#
b101 I#
b101 R#
1&
#10000
0&
#11000
11#
10#
b110 E
0[#
b0 ]#
0Z#
b0 a#
b110 R#
b110 I#
b110 @#
1&
#12000
0&
#13000
b111 E
b111 @#
b111 I#
1K#
1J#
b111 R#
1T#
1S#
1&
#14000
0&
#15000
b1000 E
b1 ]#
b1000 R#
0S#
b1000 I#
0J#
b1000 @#
1&
1!
#16000
0&
#17000
b10 ]#
b1001 E
b1001 @#
b1001 I#
b1001 R#
1&
#18000
0&
#19000
b1010 E
b11 ]#
b1010 R#
b1010 I#
b1010 @#
1&
#20000
0&
#21000
b1 |"
b100 ]#
b0 @#
b0 I#
b0 R#
b1011 E
b10 <
b10 i"
b10 &#
b10 -#
b10 ;#
b10 ?#
b10 =
b10 j"
b10 '#
b10 ,#
b10 D#
b10 H#
b10 ;
b10 h"
b10 (#
b10 +#
b10 M#
b10 Q#
1&
#22000
0&
#23000
b1 ^
b1100 E
b101 ]#
b1 .
b1 O
b1 !#
b1 }"
b1 R#
b1 I#
b1 @#
1&
#24000
0&
#25000
b1 a#
1[#
b0 ]#
b1101 E
b10 @#
b10 I#
b10 R#
1&
1"
#26000
0&
#27000
b1110 E
b10 a#
b11 R#
b11 I#
b11 @#
1&
#28000
0&
#29000
b11 a#
b1111 E
b100 @#
b100 I#
b100 R#
1&
#30000
0&
0!
#31000
b10000 E
b1 ]#
b100 a#
b101 R#
b101 I#
b101 @#
1&
#32000
0&
#33000
b101 a#
b10 ]#
b10001 E
b110 @#
b110 I#
b110 R#
1&
#34000
0&
#35000
b10010 E
b11 ]#
1Z#
b0 a#
b111 R#
b111 I#
b111 @#
1&
#36000
0&
#37000
b100 ]#
b10011 E
b1000 @#
b1000 I#
b1000 R#
1&
#38000
0&
#39000
b10100 E
b101 ]#
b1001 R#
b1001 I#
b1001 @#
1&
#40000
0&
#41000
01#
0[#
b0 ]#
b10101 E
b1010 @#
b1010 I#
b1010 R#
1&
#42000
0&
#43000
b10110 E
b0 R#
b0 I#
b0 @#
b1 ;
b1 h"
b1 (#
b1 +#
b1 M#
b1 Q#
b1 =
b1 j"
b1 '#
b1 ,#
b1 D#
b1 H#
0K#
1J#
b1 <
b1 i"
b1 &#
b1 -#
b1 ;#
b1 ?#
1&
#44000
0&
#45000
b1 ]#
b10111 E
b1 @#
b1 I#
0J#
b1 R#
1&
1!
#46000
0&
#47000
b11000 E
b10 ]#
b10 R#
b10 I#
b10 @#
1&
#48000
0&
#49000
b11 ]#
b11001 E
b11 @#
b11 I#
b11 R#
1&
#50000
0&
0"
#51000
b11010 E
b100 ]#
b1 a#
b100 R#
b100 I#
b100 @#
1&
#52000
0&
#53000
b10 a#
b101 ]#
b11011 E
b101 @#
b101 I#
b101 R#
1&
#54000
0&
#55000
b11100 E
1[#
b0 ]#
b11 a#
b110 R#
b110 I#
b110 @#
1&
#56000
0&
#57000
b100 a#
b11101 E
b111 @#
b111 I#
b111 R#
1&
#58000
0&
#59000
b11110 E
b101 a#
b1000 R#
b1000 I#
b1000 @#
1&
#60000
0&
0!
#61000
00#
0Z#
b0 a#
b1 ]#
b11111 E
b1001 @#
b1001 I#
b1001 R#
1&
#62000
0&
#63000
b100000 E
b0 R#
b1 P#
b10 ]#
17
1U#
b10 ;
b10 h"
b10 (#
b10 +#
b10 M#
b10 Q#
0T#
1S#
b1010 I#
b1010 @#
1&
#64000
0&
#65000
b10 |"
b11 ]#
b0 @#
b0 I#
b10 P#
b100001 E
b0 <
b0 i"
b0 &#
b0 -#
b0 ;#
b0 ?#
b0 =
b0 j"
b0 '#
b0 ,#
b0 D#
b0 H#
b1 R#
0S#
1&
#66000
0&
#67000
b10 ^
b100010 E
b11 P#
b100 ]#
b10 .
b10 O
b10 !#
b10 }"
b10 R#
b1 I#
b1 @#
1&
#68000
0&
#69000
b101 ]#
b100 P#
b100011 E
b10 @#
b10 I#
b11 R#
1&
#70000
0&
#71000
11#
b100100 E
b101 P#
0[#
b0 ]#
b100 R#
b11 I#
b11 @#
1&
#72000
0&
#73000
b11 |"
b0 I#
b1 G#
b110 P#
b100101 E
b100 @#
19
1L#
b1 =
b1 j"
b1 '#
b1 ,#
b1 D#
b1 H#
1K#
1J#
b101 R#
1&
#74000
0&
#75000
b11 ^
b100110 E
b111 P#
b10 G#
b1 ]#
b1 a#
b11 .
b11 O
b11 !#
06
04
03
05
b11 }"
b110 R#
b1 I#
0J#
b101 @#
1&
1!
1"
#76000
0&
#77000
b10 a#
b10 ]#
b11 G#
b0 P#
b100111 E
07
0U#
1&
#78000
0&
#79000
b101000 E
b100 G#
b11 ]#
b11 a#
1&
#80000
0&
#81000
b100 a#
b100 ]#
b101 G#
b101001 E
1&
#82000
0&
#83000
b101010 E
b110 G#
b101 ]#
b101 a#
1&
#84000
0&
#85000
1Z#
b0 a#
1[#
b0 ]#
b111 G#
b101011 E
1&
#86000
0&
#87000
b10 |"
b101100 E
b0 G#
09
0L#
1&
#88000
0&
#89000
b10 ^
b101101 E
b10 }"
b10 .
b10 O
b10 !#
16
14
13
15
1&
#90000
0&
0!
#91000
b101110 E
b1 ]#
b111 R#
b10 I#
b110 @#
1&
#92000
0&
#93000
b10 ]#
b101111 E
b111 @#
b11 I#
b1000 R#
1&
#94000
0&
#95000
b110000 E
b11 ]#
b1001 R#
b100 I#
b1000 @#
1&
#96000
0&
#97000
b100 ]#
b110001 E
b1001 @#
b101 I#
b1010 R#
1&
#98000
0&
#99000
b110010 E
b0 R#
b101 ]#
b1 ;
b1 h"
b1 (#
b1 +#
b1 M#
b1 Q#
b110 I#
b1010 @#
1&
#100000
0&
0"
#101000
01#
b1 a#
0[#
b0 ]#
b110011 E
b1011 @#
b111 I#
b1 R#
1&
#102000
0&
#103000
b11 |"
b110100 E
b0 I#
b1 G#
b10 a#
b10 R#
19
1L#
b10 =
b10 j"
b10 '#
b10 ,#
b10 D#
b10 H#
0K#
1J#
b1100 @#
1&
#104000
0&
#105000
b11 ^
b11 a#
b1 ]#
b10 G#
b110101 E
b11 }"
b11 .
b11 O
b11 !#
06
04
03
05
b1101 @#
b1 I#
0J#
b11 R#
1&
1!
#106000
0&
#107000
b110110 E
b11 G#
b10 ]#
b100 a#
1&
#108000
0&
#109000
b101 a#
b11 ]#
b100 G#
b110111 E
1&
#110000
0&
#111000
10#
b111000 E
b101 G#
b100 ]#
0Z#
b0 a#
1&
#112000
0&
#113000
b101 ]#
b110 G#
b111001 E
1T#
1S#
1&
#114000
0&
#115000
b111010 E
b111 G#
1[#
b0 ]#
0S#
1&
#116000
0&
#117000
b1 |"
b0 G#
b111011 E
09
0L#
1&
#118000
0&
#119000
b1 ^
b111100 E
b1 .
b1 O
b1 !#
16
14
13
15
b1 }"
1&
#120000
0&
0!
#121000
b1 ]#
b111101 E
b1110 @#
b10 I#
b100 R#
1&
#122000
0&
#123000
b111110 E
b10 ]#
b101 R#
b11 I#
b1111 @#
1&
#124000
0&
#125000
b1 a#
b11 ]#
b111111 E
b0 @#
b100 I#
b110 R#
1&
1"
#126000
0&
#127000
b1000000 E
b100 ]#
b10 a#
b111 R#
b101 I#
b1 @#
1&
#128000
0&
#129000
b11 a#
b101 ]#
b1000001 E
b10 @#
b110 I#
b1000 R#
1&
#130000
0&
#131000
11#
b1000010 E
0[#
b0 ]#
b100 a#
b1001 R#
b111 I#
b11 @#
1&
#132000
0&
#133000
b11 |"
b101 a#
b0 I#
b1 G#
b1000011 E
b100 @#
19
1L#
b11 =
b11 j"
b11 '#
b11 ,#
b11 D#
b11 H#
1K#
1J#
b1010 R#
1&
#134000
0&
#135000
b11 ^
b1000100 E
b0 R#
b10 G#
b1 ]#
1Z#
b0 a#
b11 .
b11 O
b11 !#
06
04
03
05
b11 }"
b0 ;
b0 h"
b0 (#
b0 +#
b0 M#
b0 Q#
b1 I#
0J#
b101 @#
1&
1!
#136000
0&
#137000
b10 ]#
b11 G#
b1000101 E
1&
#138000
0&
#139000
b1000110 E
b100 G#
b11 ]#
1&
#140000
0&
#141000
b100 ]#
b101 G#
b1000111 E
1&
#142000
0&
#143000
b1001000 E
b110 G#
b101 ]#
1&
#144000
0&
#145000
1[#
b0 ]#
b111 G#
b1001001 E
1&
#146000
0&
#147000
b0 |"
b1001010 E
b0 G#
09
0L#
1&
#148000
0&
#149000
b100 |"
b0 ^
b1001011 E
b0 }"
b0 .
b0 O
b0 !#
16
14
13
15
1&
#150000
0&
0!
0"
#151000
b101 |"
b100 ^
b1001100 E
b1 ]#
b1 a#
b100 .
b100 O
b100 !#
b100 }"
b1 R#
b10 I#
b110 @#
1&
#152000
0&
#153000
b0 ^
b10 a#
b10 ]#
b1001101 E
b101 }"
b101 .
b101 O
b101 !#
b111 @#
b11 I#
b10 R#
1&
#154000
0&
#155000
b1001110 E
b11 ]#
b11 a#
b11 R#
b100 I#
b1000 @#
1&
#156000
0&
#157000
b100 a#
b100 ]#
b1001111 E
b1001 @#
b101 I#
b100 R#
1&
#158000
0&
#159000
b1010000 E
b101 ]#
b101 a#
b101 R#
b110 I#
b1010 @#
1&
#160000
0&
#161000
00#
01#
0Z#
b0 a#
0[#
b0 ]#
b1010001 E
b1011 @#
b111 I#
b110 R#
1&
#162000
0&
#163000
b110 |"
b1010010 E
b0 R#
b1 P#
17
1U#
b1 ;
b1 h"
b1 (#
b1 +#
b1 M#
b1 Q#
0T#
1S#
b1000 I#
0K#
1J#
b1100 @#
1&
#164000
0&
#165000
b1 ]#
b10 P#
b1010011 E
b110 }"
b110 .
b110 O
b110 !#
06
04
03
05
b1101 @#
b1001 I#
0J#
b1 R#
0S#
1&
1!
#166000
0&
#167000
b1010100 E
b11 P#
b10 ]#
1&
#168000
0&
#169000
b11 ]#
b100 P#
b1010101 E
1&
#170000
0&
#171000
b1010110 E
b101 P#
b100 ]#
1&
#172000
0&
#173000
b101 ]#
b110 P#
b1010111 E
1&
#174000
0&
#175000
b1011000 E
b111 P#
1[#
b0 ]#
b1 a#
1&
1"
#176000
0&
#177000
b101 |"
b10 a#
b0 P#
b1011001 E
07
0U#
1&
#178000
0&
#179000
b1011010 E
b11 a#
b101 .
b101 O
b101 !#
16
14
13
15
b101 }"
1&
#180000
0&
0!
