codigos/Testbench/NEGADOS/Maquina_De_Estados_Y_Modos_TB/build/Maq_Est_Y_Modos.vcd
$date
	Mon Aug 26 07:07:02 2024
$end
$version
	Icarus Verilog
$end
$timescale
	1s
$end
$scope module Maq_Est_Y_Modos_TB $end
$scope module uut $end
$var wire 1 ! Boton_Comida $end
$var wire 1 " Boton_Medicina $end
$var wire 1 # clk $end
$var wire 1 $ reset $end
$var wire 1 % Senal_Reset $end
$var wire 1 & Senal_Activo_Medicina $end
$var wire 1 ' Senal_Activo_Comida $end
$var wire 1 ( Senal_5Seg_Medicina $end
$var wire 1 ) Senal_5Seg_Comida $end
$var wire 2 * Cable_Niveles_Medicina [1:0] $end
$var wire 2 + Cable_Niveles_Comida [1:0] $end
$scope module maq_est $end
$var wire 1 , Sensor_Luz $end
$var wire 1 - Sensor_UltraSonido $end
$var wire 1 # clk $end
$var wire 1 $ reset $end
$var wire 2 . Nivel_Comida [1:0] $end
$var wire 1 ( Boton_Medicina $end
$var wire 1 ) Boton_Comida $end
$var parameter 2 / Estado_Comiendo $end
$var parameter 2 0 Estado_Desnutrido $end
$var parameter 2 1 Estado_Hambre $end
$var parameter 2 2 Estado_IDLE $end
$var reg 1 ' Activo_Comida $end
$var reg 1 & Activo_Medicina $end
$var reg 2 3 Estado_Siguiente [1:0] $end
$var reg 2 4 Estados [1:0] $end
$var reg 2 5 Visualizacion [1:0] $end
$upscope $end
$scope module mods $end
$var wire 1 ' Activo_Comida $end
$var wire 1 & Activo_Medicina $end
$var wire 1 6 B_reset $end
$var wire 1 ! Bot_Energia $end
$var wire 1 " Bot_Medicina $end
$var wire 1 $ Bot_Reset $end
$var wire 1 7 Bot_Test $end
$var wire 1 8 Entrada_Animo $end
$var wire 1 9 Entrada_Descanso $end
$var wire 2 : LED_Animo [0:1] $end
$var wire 2 ; LED_Descanso [0:1] $end
$var wire 2 < LED_Energia [0:1] $end
$var wire 2 = LED_Medicina [0:1] $end
$var wire 1 % Reset_General $end
$var wire 1 # clk $end
$var wire 1 ( senal_5segMedicina $end
$var wire 1 ) senal_5segEnergia $end
$var wire 1 > senal_5segDescanso $end
$var wire 1 ? senal_5segAnimo $end
$var wire 1 @ S_ultra $end
$var wire 1 A S_fotocel $end
$var wire 2 B Nivel_Medicina [0:1] $end
$var wire 2 C Nivel_Energia [0:1] $end
$var wire 2 D Nivel_Descanso [0:1] $end
$var wire 2 E Nivel_Animo [0:1] $end
$var wire 1 F B_Test $end
$var wire 1 G B_Reset $end
$var wire 1 H B_Medicina $end
$var wire 1 I B_Energia $end
$scope module Modo_Animo $end
$var wire 1 $ B_reset $end
$var wire 2 J Nivel [0:1] $end
$var wire 1 K activo $end
$var wire 1 # clk $end
$var wire 1 ? senal_5seg $end
$var wire 1 @ Entrada $end
$var parameter 32 L Parametro $end
$var parameter 32 M tiempo5seg $end
$var reg 3 N Contador_5segundos [2:0] $end
$var reg 2 O Contador_Nivel [0:1] $end
$var reg 4 P Contador_Tiempo [3:0] $end
$var reg 1 Q Entrada_Sube_Nivel $end
$var reg 1 R Entrada_prev $end
$var reg 1 S senal_5segun $end
$upscope $end
$scope module Modo_Descanso $end
$var wire 1 $ B_reset $end
$var wire 2 T Nivel [0:1] $end
$var wire 1 U activo $end
$var wire 1 # clk $end
$var wire 1 > senal_5seg $end
$var wire 1 A Entrada $end
$var parameter 32 V Parametro $end
$var parameter 32 W tiempo5seg $end
$var reg 3 X Contador_5segundos [2:0] $end
$var reg 2 Y Contador_Nivel [0:1] $end
$var reg 4 Z Contador_Tiempo [3:0] $end
$var reg 1 [ Entrada_Sube_Nivel $end
$var reg 1 \ Entrada_prev $end
$var reg 1 ] senal_5segun $end
$upscope $end
$scope module Modo_Energia $end
$var wire 1 $ B_reset $end
$var wire 2 ^ Nivel [0:1] $end
$var wire 1 ' activo $end
$var wire 1 # clk $end
$var wire 1 ) senal_5seg $end
$var wire 1 I Entrada $end
$var parameter 32 _ Parametro $end
$var parameter 32 ` tiempo5seg $end
$var reg 3 a Contador_5segundos [2:0] $end
$var reg 2 b Contador_Nivel [0:1] $end
$var reg 4 c Contador_Tiempo [3:0] $end
$var reg 1 d Entrada_Sube_Nivel $end
$var reg 1 e Entrada_prev $end
$var reg 1 f senal_5segun $end
$upscope $end
$scope module Modo_Medicina $end
$var wire 1 g B_reset $end
$var wire 2 h Nivel [0:1] $end
$var wire 1 & activo $end
$var wire 1 # clk $end
$var wire 1 ( senal_5seg $end
$var wire 1 H Entrada $end
$var parameter 32 i Parametro $end
$var parameter 32 j tiempo5seg $end
$var reg 3 k Contador_5segundos [2:0] $end
$var reg 2 l Contador_Nivel [0:1] $end
$var reg 4 m Contador_Tiempo [3:0] $end
$var reg 1 n Entrada_Sube_Nivel $end
$var reg 1 o Entrada_prev $end
$var reg 1 p senal_5segun $end
$upscope $end
$scope module utt $end
$var wire 1 ! b_energia $end
$var wire 1 " b_medicina $end
$var wire 1 # clk $end
$var wire 1 $ reset $end
$var wire 1 9 sensor_fot_in $end
$var wire 1 8 sensor_ult_in $end
$var wire 1 7 test $end
$var wire 1 q test_tmp $end
$var wire 1 r sensor_ult_out $end
$var wire 1 s sensor_fot_out $end
$var wire 1 t reset_tmp $end
$var wire 1 u medicina_tmp $end
$var wire 1 v energia_tmp $end
$var reg 1 I Senal_Energia $end
$var reg 1 H Senal_Medicina $end
$var reg 1 G Senal_Reset $end
$var reg 1 F Senal_Test $end
$var reg 1 A Senal_fot $end
$var reg 1 @ Senal_ultrasonido $end
$scope module B_Energia $end
$var wire 1 ! boton_in $end
$var wire 1 # clk $end
$var wire 1 $ reset $end
$var parameter 32 w COUNT_BOT $end
$var reg 1 v boton_out $end
$var reg 3 x counter [2:0] $end
$upscope $end
$scope module B_Medicina $end
$var wire 1 " boton_in $end
$var wire 1 # clk $end
$var wire 1 $ reset $end
$var parameter 32 y COUNT_BOT $end
$var reg 1 u boton_out $end
$var reg 3 z counter [2:0] $end
$upscope $end
$scope module B_Reset $end
$var wire 1 $ boton_in $end
$var wire 1 # clk $end
$var wire 1 { reset $end
$var parameter 32 | COUNT_BOT $end
$var reg 1 t boton_out $end
$var reg 3 } counter [2:0] $end
$upscope $end
$scope module B_Test $end
$var wire 1 7 boton_in $end
$var wire 1 # clk $end
$var wire 1 $ reset $end
$var parameter 32 ~ COUNT_BOT $end
$var reg 1 q boton_out $end
$var reg 3 !" counter [2:0] $end
$upscope $end
$scope module Sensor_fotocel $end
$var wire 1 # clk $end
$var wire 1 $ reset $end
$var wire 1 9 sensor_in $end
$var parameter 32 "" COUNT_BOT $end
$var reg 4 #" counter [3:0] $end
$var reg 1 s sensor_out $end
$upscope $end
$scope module Sensor_ultrasonido $end
$var wire 1 # clk $end
$var wire 1 $ reset $end
$var wire 1 8 sensor_in $end
$var parameter 32 $" COUNT_BOT $end
$var reg 4 %" counter [3:0] $end
$var reg 1 r sensor_out $end
$upscope $end
$upscope $end
$upscope $end
$upscope $end
$upscope $end
$enddefinitions $end
$comment Show the parameter values. $end
$dumpall
b1010 $"
b1010 ""
b101 ~
b101 |
b101 y
b101 w
b111 j
b1010 i
b111 `
b1010 _
b111 W
b1010 V
b111 M
b1010 L
b0 2
b1 1
b10 0
b11 /
$end
#0
$dumpvars
b0 %"
b0 #"
b0 !"
b0 }
z{
b0 z
b0 x
1v
1u
1t
1s
1r
1q
0p
0o
0n
b0 m
b11 l
b0 k
b11 h
zg
0f
0e
0d
b0 c
b11 b
b0 a
b11 ^
0]
0\
0[
b0 Z
b11 Y
b0 X
1U
b11 T
0S
0R
0Q
b0 P
b11 O
b0 N
1K
b11 J
0I
0H
0G
0F
b11 E
b11 D
b11 C
b11 B
0A
0@
0?
0>
b11 =
b11 <
b11 ;
b11 :
z9
z8
z7
z6
b0 5
b0 4
b0 3
b11 .
z-
z,
b11 +
b11 *
0)
0(
1'
1&
0%
0$
0#
z"
0!
$end
#1
b1 }
b1 N
b1 X
b1 a
b1 m
1#
#2
0#
#3
b10 }
b10 m
b1 a
b1 X
b1 N
1#
#4
0#
#5
b11 }
b1 N
b1 X
b1 a
b11 m
1#
#6
0#
#7
b100 }
b100 m
b1 a
b1 X
b1 N
1#
#8
0#
#9
b101 }
b1 N
b1 X
b1 a
b101 m
1#
#10
0#
#11
1%
1G
0t
b0 }
b110 m
b1 a
b1 X
b1 N
1#
#12
0#
#13
b1 N
b1 X
b1 a
b111 m
1#
#14
0#
#15
b1000 m
b1 a
b1 X
b1 N
1#
1!
#16
0#
#17
b1 N
b1 X
b1 a
b1001 m
1#
#18
0#
#19
b1010 m
b1 a
b1 X
b1 N
1#
#20
0#
#21
b0 m
b1 N
b1 X
b1 a
b10 *
b10 =
b10 B
b10 h
b10 l
1#
#22
0#
#23
b1 m
b1 a
b1 X
b1 N
1#
#24
0#
#25
b1 N
b1 X
b1 a
b10 m
1#
#26
0#
#27
b11 m
b1 a
b1 X
b1 N
1#
#28
0#
#29
b1 N
b1 X
b1 a
b100 m
1#
#30
0#
0!
#31
b101 m
b1 a
b1 X
b1 N
1#
#32
0#
#33
b1 N
b1 X
b1 a
b110 m
1#
#34
0#
#35
b111 m
b1 a
b1 X
b1 N
1#
#36
0#
#37
b1 N
b1 X
b1 a
b1000 m
1#
#38
0#
#39
b1001 m
b1 a
b1 X
b1 N
1#
#40
0#
#41
b1 N
b1 X
b1 a
b1010 m
1#
#42
0#
#43
b0 m
b1 *
b1 =
b1 B
b1 h
b1 l
b1 a
b1 X
b1 N
1#
#44
0#
#45
b1 N
b1 X
b1 a
b1 m
1#
1!
#46
0#
#47
b10 m
b1 a
b1 X
b1 N
1#
#48
0#
#49
b1 N
b1 X
b1 a
b11 m
1#
#50
0#
#51
b100 m
b1 a
b1 X
b1 N
1#
#52
0#
#53
b1 N
b1 X
b1 a
b101 m
1#
#54
0#
#55
b110 m
b1 a
b1 X
b1 N
1#
#56
0#
#57
b1 N
b1 X
b1 a
b111 m
1#
#58
0#
#59
b1000 m
b1 a
b1 X
b1 N
1#
#60
0#
0!
#61
b1 N
b1 X
b1 a
b1001 m
1#
#62
0#
#63
b1010 m
b1 a
b1 X
b1 N
1#
#64
0#
#65
b0 m
b1 N
b1 X
b1 a
b0 *
b0 =
b0 B
b0 h
b0 l
1#
#66
0#
#67
b1 m
b1 a
b1 X
b1 N
1#
#68
0#
#69
b1 N
b1 X
b1 a
b10 m
1#
#70
0#
#71
b11 m
b1 a
b1 X
b1 N
1#
#72
0#
#73
b1 N
b1 X
b1 a
b100 m
1#
#74
0#
#75
b101 m
b1 a
b1 X
b1 N
1#
1!
#76
0#
#77
b1 N
b1 X
b1 a
b110 m
1#
#78
0#
#79
b111 m
b1 a
b1 X
b1 N
1#
#80
0#
#81
b1 N
b1 X
b1 a
b1000 m
1#
#82
0#
#83
b1001 m
b1 a
b1 X
b1 N
1#
#84
0#
#85
b1 N
b1 X
b1 a
b1010 m
1#
#86
0#
#87
b1011 m
b1 a
b1 X
b1 N
1#
#88
0#
#89
b1 N
b1 X
b1 a
b1100 m
1#
#90
0#
0!
#91
b1101 m
b1 a
b1 X
b1 N
1#
#92
0#
#93
b1 N
b1 X
b1 a
b1110 m
1#
#94
0#
#95
b1111 m
b1 a
b1 X
b1 N
1#
#96
0#
#97
b1 N
b1 X
b1 a
b0 m
1#
#98
0#
#99
b1 m
b1 a
b1 X
b1 N
1#
#100
0#
#101
b1 N
b1 X
b1 a
b10 m
1#
#102
0#
#103
b11 m
b1 a
b1 X
b1 N
1#
#104
0#
#105
b1 N
b1 X
b1 a
b100 m
1#
1!
#106
0#
#107
b101 m
b1 a
b1 X
b1 N
1#
#108
0#
#109
b1 N
b1 X
b1 a
b110 m
1#
#110
0#
#111
b111 m
b1 a
b1 X
b1 N
1#
#112
0#
#113
b1 N
b1 X
b1 a
b1000 m
1#
#114
0#
#115
b1001 m
b1 a
b1 X
b1 N
1#
#116
0#
#117
b1 N
b1 X
b1 a
b1010 m
1#
#118
0#
#119
b1011 m
b1 a
b1 X
b1 N
1#
#120
0#
0!
#121
b1 N
b1 X
b1 a
b1100 m
1#
#122
0#
#123
b1101 m
b1 a
b1 X
b1 N
1#
#124
0#
#125
b1 N
b1 X
b1 a
b1110 m
1#
#126
0#
#127
b1111 m
b1 a
b1 X
b1 N
1#
#128
0#
#129
b1 N
b1 X
b1 a
b0 m
1#
#130
0#
#131
b1 m
b1 a
b1 X
b1 N
1#
#132
0#
#133
b1 N
b1 X
b1 a
b10 m
1#
#134
0#
#135
b11 m
b1 a
b1 X
b1 N
1#
1!
#136
0#
#137
b1 N
b1 X
b1 a
b100 m
1#
#138
0#
#139
b101 m
b1 a
b1 X
b1 N
1#
#140
0#
#141
b1 N
b1 X
b1 a
b110 m
1#
#142
0#
#143
b111 m
b1 a
b1 X
b1 N
1#
#144
0#
#145
b1 N
b1 X
b1 a
b1000 m
1#
#146
0#
#147
b1001 m
b1 a
b1 X
b1 N
1#
#148
0#
#149
b1 N
b1 X
b1 a
b1010 m
1#
#150
0#
0!
#151
b1011 m
b1 a
b1 X
b1 N
1#
#152
0#
#153
b1 N
b1 X
b1 a
b1100 m
1#
#154
0#
#155
b1101 m
b1 a
b1 X
b1 N
1#
#156
0#
#157
b1 N
b1 X
b1 a
b1110 m
1#
#158
0#
#159
b1111 m
b1 a
b1 X
b1 N
1#
#160
0#
#161
b1 N
b1 X
b1 a
b0 m
1#
#162
0#
#163
b1 m
b1 a
b1 X
b1 N
1#
#164
0#
#165
b1 N
b1 X
b1 a
b10 m
1#
1!
#166
0#
#167
b11 m
b1 a
b1 X
b1 N
1#
#168
0#
#169
b1 N
b1 X
b1 a
b100 m
1#
#170
0#
#171
b101 m
b1 a
b1 X
b1 N
1#
#172
0#
#173
b1 N
b1 X
b1 a
b110 m
1#
#174
0#
#175
b111 m
b1 a
b1 X
b1 N
1#
#176
0#
#177
b1 N
b1 X
b1 a
b1000 m
1#
#178
0#
#179
b1001 m
b1 a
b1 X
b1 N
1#
#180
0#
0!
#181
b1 N
b1 X
b1 a
b1010 m
1#
#182
0#
#183
b1011 m
b1 a
b1 X
b1 N
1#
#184
0#
#185
b1 N
b1 X
b1 a
b1100 m
1#
#186
0#
#187
b1101 m
b1 a
b1 X
b1 N
1#
#188
0#
#189
b1 N
b1 X
b1 a
b1110 m
1#
#190
0#
#191
b1111 m
b1 a
b1 X
b1 N
1#
#192
0#
#193
b1 N
b1 X
b1 a
b0 m
1#
#194
0#
#195
b1 m
b1 a
b1 X
b1 N
1#
1!
#196
0#
#197
b1 N
b1 X
b1 a
b10 m
1#
#198
0#
#199
b11 m
b1 a
b1 X
b1 N
1#
#200
0#
#201
b1 N
b1 X
b1 a
b100 m
1#
#202
0#
#203
b101 m
b1 a
b1 X
b1 N
1#
#204
0#
#205
b1 N
b1 X
b1 a
b110 m
1#
#206
0#
#207
b111 m
b1 a
b1 X
b1 N
1#
#208
0#
#209
b1 N
b1 X
b1 a
b1000 m
1#
#210
0#
0!
#211
b1001 m
b1 a
b1 X
b1 N
1#
#212
0#
#213
b1 N
b1 X
b1 a
b1010 m
1#
#214
0#
#215
b1011 m
b1 a
b1 X
b1 N
1#
#216
0#
#217
b1 N
b1 X
b1 a
b1100 m
1#
#218
0#
#219
b1101 m
b1 a
b1 X
b1 N
1#
#220
0#
#221
b1 N
b1 X
b1 a
b1110 m
1#
#222
0#
#223
b1111 m
b1 a
b1 X
b1 N
1#
#224
0#
#225
b1 N
b1 X
b1 a
b0 m
1#
1!
#226
0#
#227
b1 m
b1 a
b1 X
b1 N
1#
#228
0#
#229
b1 N
b1 X
b1 a
b10 m
1#
#230
0#
#231
b11 m
b1 a
b1 X
b1 N
1#
#232
0#
#233
b1 N
b1 X
b1 a
b100 m
1#
#234
0#
#235
b101 m
b1 a
b1 X
b1 N
1#
#236
0#
#237
b1 N
b1 X
b1 a
b110 m
1#
#238
0#
#239
b111 m
b1 a
b1 X
b1 N
1#
#240
0#
0!
#241
b1 N
b1 X
b1 a
b1000 m
1#
#242
0#
#243
b1001 m
b1 a
b1 X
b1 N
1#
#244
0#
#245
b1 N
b1 X
b1 a
b1010 m
1#
#246
0#
#247
b1011 m
b1 a
b1 X
b1 N
1#
#248
0#
#249
b1 N
b1 X
b1 a
b1100 m
1#
#250
0#
#251
b1101 m
b1 a
b1 X
b1 N
1#
#252
0#
#253
b1 N
b1 X
b1 a
b1110 m
1#
#254
0#
#255
b1111 m
b1 a
b1 X
b1 N
1#
1!
#256
0#
#257
b1 N
b1 X
b1 a
b0 m
1#
#258
0#
#259
b1 m
b1 a
b1 X
b1 N
1#
#260
0#
#261
b1 N
b1 X
b1 a
b10 m
1#
#262
0#
#263
b11 m
b1 a
b1 X
b1 N
1#
#264
0#
#265
b1 N
b1 X
b1 a
b100 m
1#
#266
0#
#267
b101 m
b1 a
b1 X
b1 N
1#
#268
0#
#269
b1 N
b1 X
b1 a
b110 m
1#
#270
0#
0!
#271
b111 m
b1 a
b1 X
b1 N
1#
#272
0#
#273
b1 N
b1 X
b1 a
b1000 m
1#
#274
0#
#275
b1001 m
b1 a
b1 X
b1 N
1#
#276
0#
#277
b1 N
b1 X
b1 a
b1010 m
1#
#278
0#
#279
b1011 m
b1 a
b1 X
b1 N
1#
#280
0#
#281
b1 N
b1 X
b1 a
b1100 m
1#
#282
0#
#283
b1101 m
b1 a
b1 X
b1 N
1#
#284
0#
#285
b1 N
b1 X
b1 a
b1110 m
1#
1!
#286
0#
#287
b1111 m
b1 a
b1 X
b1 N
1#
#288
0#
#289
b1 N
b1 X
b1 a
b0 m
1#
#290
0#
#291
b1 m
b1 a
b1 X
b1 N
1#
#292
0#
#293
b1 N
b1 X
b1 a
b10 m
1#
#294
0#
#295
b11 m
b1 a
b1 X
b1 N
1#
#296
0#
#297
b1 N
b1 X
b1 a
b100 m
1#
#298
0#
#299
b101 m
b1 a
b1 X
b1 N
1#
#300
0#
0!
#301
b1 N
b1 X
b1 a
b110 m
1#
#302
0#
#303
b111 m
b1 a
b1 X
b1 N
1#
#304
0#
#305
b1 N
b1 X
b1 a
b1000 m
1#
#306
0#
#307
b1001 m
b1 a
b1 X
b1 N
1#
#308
0#
#309
b1 N
b1 X
b1 a
b1010 m
1#
#310
0#
#311
b1011 m
b1 a
b1 X
b1 N
1#
#312
0#
#313
b1 N
b1 X
b1 a
b1100 m
1#
#314
0#
#315
b1101 m
b1 a
b1 X
b1 N
1#
1!
#316
0#
#317
b1 N
b1 X
b1 a
b1110 m
1#
#318
0#
#319
b1111 m
b1 a
b1 X
b1 N
1#
#320
0#
#321
b1 N
b1 X
b1 a
b0 m
1#
#322
0#
#323
b1 m
b1 a
b1 X
b1 N
1#
#324
0#
#325
b1 N
b1 X
b1 a
b10 m
1#
#326
0#
#327
b11 m
b1 a
b1 X
b1 N
1#
#328
0#
#329
b1 N
b1 X
b1 a
b100 m
1#
#330
0#
0!
#331
b101 m
b1 a
b1 X
b1 N
1#
#332
0#
#333
b1 N
b1 X
b1 a
b110 m
1#
#334
0#
#335
b111 m
b1 a
b1 X
b1 N
1#
#336
0#
#337
b1 N
b1 X
b1 a
b1000 m
1#
#338
0#
#339
b1001 m
b1 a
b1 X
b1 N
1#
#340
0#
#341
b1 N
b1 X
b1 a
b1010 m
1#
#342
0#
#343
b1011 m
b1 a
b1 X
b1 N
1#
#344
0#
#345
b1 N
b1 X
b1 a
b1100 m
1#
1!
#346
0#
#347
b1101 m
b1 a
b1 X
b1 N
1#
#348
0#
#349
b1 N
b1 X
b1 a
b1110 m
1#
#350
0#
#351
b1111 m
b1 a
b1 X
b1 N
1#
#352
0#
#353
b1 N
b1 X
b1 a
b0 m
1#
#354
0#
#355
b1 m
b1 a
b1 X
b1 N
1#
#356
0#
#357
b1 N
b1 X
b1 a
b10 m
1#
#358
0#
#359
b11 m
b1 a
b1 X
b1 N
1#
#360
0#
0!
#361
b1 N
b1 X
b1 a
b100 m
1#
#362
0#
#363
b101 m
b1 a
b1 X
b1 N
1#
#364
0#
#365
b1 N
b1 X
b1 a
b110 m
1#
#366
0#
#367
b111 m
b1 a
b1 X
b1 N
1#
#368
0#
#369
b1 N
b1 X
b1 a
b1000 m
1#
#370
0#
#371
b1001 m
b1 a
b1 X
b1 N
1#
#372
0#
#373
b1 N
b1 X
b1 a
b1010 m
1#
#374
0#
#375
b1011 m
b1 a
b1 X
b1 N
1#
1!
#376
0#
#377
b1 N
b1 X
b1 a
b1100 m
1#
#378
0#
#379
b1101 m
b1 a
b1 X
b1 N
1#
#380
0#
#381
b1 N
b1 X
b1 a
b1110 m
1#
#382
0#
#383
b1111 m
b1 a
b1 X
b1 N
1#
#384
0#
#385
b1 N
b1 X
b1 a
b0 m
1#
#386
0#
#387
b1 m
b1 a
b1 X
b1 N
1#
#388
0#
#389
b1 N
b1 X
b1 a
b10 m
1#
#390
0#
0!
#391
b11 m
b1 a
b1 X
b1 N
1#
#392
0#
#393
b1 N
b1 X
b1 a
b100 m
1#
#394
0#
#395
b101 m
b1 a
b1 X
b1 N
1#
#396
0#
#397
b1 N
b1 X
b1 a
b110 m
1#
#398
0#
#399
b111 m
b1 a
b1 X
b1 N
1#
#400
0#
#401
b1 N
b1 X
b1 a
b1000 m
1#
#402
0#
#403
b1001 m
b1 a
b1 X
b1 N
1#
#404
0#
#405
b1 N
b1 X
b1 a
b1010 m
1#
1!
#406
0#
#407
b1011 m
b1 a
b1 X
b1 N
1#
#408
0#
#409
b1 N
b1 X
b1 a
b1100 m
1#
#410
0#
#411
b1101 m
b1 a
b1 X
b1 N
1#
#412
0#
#413
b1 N
b1 X
b1 a
b1110 m
1#
#414
0#
#415
b1111 m
b1 a
b1 X
b1 N
1#
#416
0#
#417
b1 N
b1 X
b1 a
b0 m
1#
#418
0#
#419
b1 m
b1 a
b1 X
b1 N
1#
#420
0#
0!
#421
b1 N
b1 X
b1 a
b10 m
1#
#422
0#
#423
b11 m
b1 a
b1 X
b1 N
1#
#424
0#
#425
b1 N
b1 X
b1 a
b100 m
1#
#426
0#
#427
b101 m
b1 a
b1 X
b1 N
1#
#428
0#
#429
b1 N
b1 X
b1 a
b110 m
1#
#430
0#
#431
b111 m
b1 a
b1 X
b1 N
1#
#432
0#
#433
b1 N
b1 X
b1 a
b1000 m
1#
#434
0#
#435
b1001 m
b1 a
b1 X
b1 N
1#
1!
#436
0#
#437
b1 N
b1 X
b1 a
b1010 m
1#
#438
0#
#439
b1011 m
b1 a
b1 X
b1 N
1#
#440
0#
#441
b1 N
b1 X
b1 a
b1100 m
1#
#442
0#
#443
b1101 m
b1 a
b1 X
b1 N
1#
#444
0#
#445
b1 N
b1 X
b1 a
b1110 m
1#
#446
0#
#447
b1111 m
b1 a
b1 X
b1 N
1#
#448
0#
#449
b1 N
b1 X
b1 a
b0 m
1#
#450
0#
0!
#451
b1 m
b1 a
b1 X
b1 N
1#
#452
0#
#453
b1 N
b1 X
b1 a
b10 m
1#
#454
0#
#455
b11 m
b1 a
b1 X
b1 N
1#
#456
0#
#457
b1 N
b1 X
b1 a
b100 m
1#
#458
0#
#459
b101 m
b1 a
b1 X
b1 N
1#
#460
0#
#461
b1 N
b1 X
b1 a
b110 m
1#
#462
0#
#463
b111 m
b1 a
b1 X
b1 N
1#
#464
0#
#465
b1 N
b1 X
b1 a
b1000 m
1#
1!
#466
0#
#467
b1001 m
b1 a
b1 X
b1 N
1#
#468
0#
#469
b1 N
b1 X
b1 a
b1010 m
1#
#470
0#
#471
b1011 m
b1 a
b1 X
b1 N
1#
#472
0#
#473
b1 N
b1 X
b1 a
b1100 m
1#
#474
0#
#475
b1101 m
b1 a
b1 X
b1 N
1#
#476
0#
#477
b1 N
b1 X
b1 a
b1110 m
1#
#478
0#
#479
b1111 m
b1 a
b1 X
b1 N
1#
#480
0#
0!
#481
b1 N
b1 X
b1 a
b0 m
1#
#482
0#
#483
b1 m
b1 a
b1 X
b1 N
1#
#484
0#
#485
b1 N
b1 X
b1 a
b10 m
1#
#486
0#
#487
b11 m
b1 a
b1 X
b1 N
1#
#488
0#
#489
b1 N
b1 X
b1 a
b100 m
1#
#490
0#
#491
b101 m
b1 a
b1 X
b1 N
1#
#492
0#
#493
b1 N
b1 X
b1 a
b110 m
1#
#494
0#
#495
b111 m
b1 a
b1 X
b1 N
1#
1!
#496
0#
#497
b1 N
b1 X
b1 a
b1000 m
1#
#498
0#
#499
b1001 m
b1 a
b1 X
b1 N
1#
#500
0#
1$
#501
b1 }
b10 N
b1 P
b10 X
b1 Z
b10 a
b1 c
b1010 m
1#
#502
0#
#503
b10 }
b1011 m
b11 a
b10 c
b11 X
b10 Z
b11 N
b10 P
1#
#504
0#
#505
b11 }
b100 N
b11 P
b100 X
b11 Z
b100 a
b11 c
b1100 m
1#
#506
0#
#507
b100 }
b1101 m
b101 a
b100 c
b101 X
b100 Z
b101 N
b100 P
1#
#508
0#
#509
b101 }
b110 N
b101 P
b110 X
b101 Z
b110 a
b101 c
b1110 m
1#
#510
0#
0!
#511
b1 x
1t
b0 }
b1111 m
b111 a
b110 c
b111 X
b110 Z
b111 N
b110 P
1#
#512
0#
#513
b10 x
b0 N
b111 P
b0 X
b111 Z
b0 a
b111 c
b0 m
1#
#514
0#
#515
b11 x
b1 m
b1000 c
b1000 Z
b1000 P
1#
#516
0#
#517
b100 x
b1001 P
b1001 Z
b1001 c
b10 m
1#
#518
0#
#519
b101 x
b11 m
b1010 c
b1010 Z
b1010 P
1#
#520
0#
#521
1I
b1 3
0v
b0 x
b0 P
b0 Z
b0 c
b10 :
b10 E
b10 J
b10 O
b10 ;
b10 D
b10 T
b10 Y
b10 +
b10 .
b10 <
b10 C
b10 ^
b10 b
b100 m
1#
#522
0#
#523
b11 3
b1 4
b1 5
b101 m
1)
1f
b10 a
b11 +
b11 .
b11 <
b11 C
b11 ^
b11 b
1e
1d
b1 Z
b1 P
1#
#524
0#
#525
b11 5
0&
b11 4
b1 x
b10 P
b10 Z
b11 a
b1 c
0d
b110 m
1#
1!
#526
0#
#527
b10 x
b100 a
b10 c
b11 Z
b11 P
1#
#528
0#
#529
b11 x
b100 P
b100 Z
b101 a
b11 c
1#
#530
0#
#531
b100 x
b110 a
b100 c
b101 Z
b101 P
1#
#532
0#
#533
b101 x
b110 P
b110 Z
b111 a
b101 c
1#
#534
0#
#535
b0 3
1v
b0 x
b0 a
0)
0f
b110 c
b111 Z
b111 P
1#
#536
0#
#537
b0 5
1&
b0 4
b1000 P
b1000 Z
b111 c
1#
#538
0#
#539
b111 m
b1000 c
b1001 Z
b1001 P
1#
#540
0#
0!
#541
b1 x
b1010 P
b1010 Z
b1001 c
b1000 m
1#
#542
0#
#543
b0 Z
b0 P
b10 x
b1001 m
b1010 c
b1 ;
b1 D
b1 T
b1 Y
b1 :
b1 E
b1 J
b1 O
1#
#544
0#
#545
b1 3
b11 x
b0 c
b1 P
b1 Z
b10 +
b10 .
b10 <
b10 C
b10 ^
b10 b
b1010 m
1#
#546
0#
#547
b1 4
b1 5
b100 x
b1011 m
b1 c
b10 Z
b10 P
1#
#548
0#
#549
b101 x
b11 P
b11 Z
b10 c
b1100 m
1#
#550
0#
#551
0I
0v
b0 x
b1101 m
b11 c
b100 Z
b100 P
1#
#552
0#
#553
b11 3
b0 c
b101 P
b101 Z
1)
1f
b10 a
b11 +
b11 .
b11 <
b11 C
b11 ^
b11 b
0e
1d
b1110 m
1#
#554
0#
#555
b11 4
b11 5
0&
b1 x
b1111 m
b11 a
b1 c
0d
b110 Z
b110 P
1#
1!
#556
0#
#557
b10 x
b111 P
b111 Z
b100 a
b10 c
1#
#558
0#
#559
b11 x
b101 a
b11 c
b1000 Z
b1000 P
1#
#560
0#
#561
b100 x
b1001 P
b1001 Z
b110 a
b100 c
1#
#562
0#
#563
b101 x
b111 a
b101 c
b1010 Z
b1010 P
1#
#564
0#
#565
b0 3
1v
b0 x
b0 P
b0 Z
b0 :
b0 E
b0 J
b0 O
b0 ;
b0 D
b0 T
b0 Y
b0 a
0)
0f
b110 c
1#
#566
0#
#567
b0 4
b0 5
1&
b111 c
b1 Z
b1 P
1#
#568
0#
#569
b10 P
b10 Z
b1000 c
b0 m
1#
#570
0#
0!
#571
b1 x
b1 m
b1001 c
b11 Z
b11 P
1#
#572
0#
#573
b10 x
b100 P
b100 Z
b1010 c
b10 m
1#
#574
0#
#575
b1 3
b0 c
b11 x
b11 m
b10 +
b10 .
b10 <
b10 C
b10 ^
b10 b
b101 Z
b101 P
1#
#576
0#
#577
b1 5
b1 4
b100 x
b110 P
b110 Z
b1 c
b100 m
1#
#578
0#
#579
b101 x
b101 m
b10 c
b111 Z
b111 P
1#
#580
0#
#581
1I
0v
b0 x
b1000 P
b1000 Z
b11 c
b110 m
1#
#582
0#
#583
b11 3
b0 c
b111 m
1)
1f
b10 a
b11 +
b11 .
b11 <
b11 C
b11 ^
b11 b
1e
1d
b1001 Z
b1001 P
1#
#584
0#
#585
b11 5
0&
b11 4
b1 x
b1010 P
b1010 Z
b11 a
b1 c
0d
b1000 m
1#
1!
#586
0#
#587
b10 x
b100 a
b10 c
b1011 Z
b1011 P
1#
#588
0#
#589
b11 x
b1100 P
b1100 Z
b101 a
b11 c
1#
#590
0#
#591
b100 x
b110 a
b100 c
b1101 Z
b1101 P
1#
#592
0#
#593
b101 x
b1110 P
b1110 Z
b111 a
b101 c
1#
#594
0#
#595
b0 3
1v
b0 x
b0 a
0)
0f
b110 c
b1111 Z
b1111 P
1#
#596
0#
#597
b0 5
1&
b0 4
b0 P
b0 Z
b111 c
1#
#598
0#
#599
b1001 m
b1000 c
b1 Z
b1 P
1#
#600
0#
0!
#601
b1 x
b10 P
b10 Z
b1001 c
b1010 m
1#
#602
0#
