codigos/Testbench/NEGADOS/Maquina_De_Estados_Y_Modos_TB/build/Maq_Est_Y_Modos.vcd
$date
	Mon Aug 26 08:21:31 2024
$end
$version
	Icarus Verilog
$end
$timescale
	1ps
$end
$scope module Maq_Est_Y_Modos_TB $end
$scope module uut $end
$var wire 1 ! Boton_Comida $end
$var wire 1 " Boton_Medicina $end
$var wire 1 # clk $end
$var wire 1 $ reset $end
$var wire 7 % sseg [0:6] $end
$var wire 5 & an [4:0] $end
$var wire 16 ' Siete_Segmentos [0:15] $end
$var wire 1 ( Senal_Reset $end
$var wire 1 ) Senal_Activo_Medicina $end
$var wire 1 * Senal_Activo_Comida $end
$var wire 1 + Senal_5Seg_Medicina $end
$var wire 1 , Senal_5Seg_Comida $end
$var wire 2 - Cable_Niveles_Medicina [1:0] $end
$var wire 2 . Cable_Niveles_Comida [1:0] $end
$scope module Display_MyM $end
$var wire 1 # clk $end
$var wire 1 / led $end
$var wire 7 0 sseg [0:6] $end
$var wire 1 ( rst $end
$var wire 16 1 num [15:0] $end
$var wire 1 2 enable $end
$var reg 5 3 an [4:0] $end
$var reg 4 4 bcd [3:0] $end
$var reg 27 5 cfreq [26:0] $end
$var reg 3 6 count [2:0] $end
$var reg 4 7 digit_0 [3:0] $end
$var reg 4 8 digit_1 [3:0] $end
$var reg 4 9 digit_2 [3:0] $end
$var reg 4 : digit_3 [3:0] $end
$var reg 4 ; digit_4 [3:0] $end
$scope module bcdtosseg $end
$var wire 4 < BCD [3:0] $end
$var wire 4 = an [3:0] $end
$var reg 7 > SSeg [0:6] $end
$upscope $end
$upscope $end
$scope module maq_est $end
$var wire 1 ? Sensor_Luz $end
$var wire 1 @ Sensor_UltraSonido $end
$var wire 1 # clk $end
$var wire 1 ( reset $end
$var wire 2 A Nivel_Comida [1:0] $end
$var wire 1 + Boton_Medicina $end
$var wire 1 , Boton_Comida $end
$var parameter 2 B Estado_Comiendo $end
$var parameter 2 C Estado_Desnutrido $end
$var parameter 2 D Estado_Hambre $end
$var parameter 2 E Estado_IDLE $end
$var reg 1 * Activo_Comida $end
$var reg 1 ) Activo_Medicina $end
$var reg 2 F Estado_Siguiente [1:0] $end
$var reg 2 G Estados [1:0] $end
$var reg 16 H Salida_7seg [0:15] $end
$var reg 2 I Visualizacion [1:0] $end
$upscope $end
$scope module mods $end
$var wire 1 * Activo_Comida $end
$var wire 1 ) Activo_Medicina $end
$var wire 1 J B_reset $end
$var wire 1 ! Bot_Energia $end
$var wire 1 " Bot_Medicina $end
$var wire 1 $ Bot_Reset $end
$var wire 1 K Bot_Test $end
$var wire 1 L Entrada_Animo $end
$var wire 1 M Entrada_Descanso $end
$var wire 2 N LED_Animo [0:1] $end
$var wire 2 O LED_Descanso [0:1] $end
$var wire 2 P LED_Energia [0:1] $end
$var wire 2 Q LED_Medicina [0:1] $end
$var wire 1 ( Reset_General $end
$var wire 1 # clk $end
$var wire 1 + senal_5segMedicina $end
$var wire 1 , senal_5segEnergia $end
$var wire 1 R senal_5segDescanso $end
$var wire 1 S senal_5segAnimo $end
$var wire 1 T S_ultra $end
$var wire 1 U S_fotocel $end
$var wire 2 V Nivel_Medicina [0:1] $end
$var wire 2 W Nivel_Energia [0:1] $end
$var wire 2 X Nivel_Descanso [0:1] $end
$var wire 2 Y Nivel_Animo [0:1] $end
$var wire 1 Z B_Test $end
$var wire 1 [ B_Reset $end
$var wire 1 \ B_Medicina $end
$var wire 1 ] B_Energia $end
$scope module Modo_Animo $end
$var wire 2 ^ Nivel [0:1] $end
$var wire 1 _ activo $end
$var wire 1 # clk $end
$var wire 1 S senal_5seg $end
$var wire 1 T Entrada $end
$var wire 1 [ B_reset $end
$var parameter 32 ` Parametro $end
$var parameter 32 a tiempo5seg $end
$var reg 3 b Contador_5segundos [2:0] $end
$var reg 2 c Contador_Nivel [0:1] $end
$var reg 4 d Contador_Tiempo [3:0] $end
$var reg 1 e Entrada_Sube_Nivel $end
$var reg 1 f Entrada_prev $end
$var reg 1 g senal_5segun $end
$upscope $end
$scope module Modo_Descanso $end
$var wire 2 h Nivel [0:1] $end
$var wire 1 i activo $end
$var wire 1 # clk $end
$var wire 1 R senal_5seg $end
$var wire 1 U Entrada $end
$var wire 1 [ B_reset $end
$var parameter 32 j Parametro $end
$var parameter 32 k tiempo5seg $end
$var reg 3 l Contador_5segundos [2:0] $end
$var reg 2 m Contador_Nivel [0:1] $end
$var reg 4 n Contador_Tiempo [3:0] $end
$var reg 1 o Entrada_Sube_Nivel $end
$var reg 1 p Entrada_prev $end
$var reg 1 q senal_5segun $end
$upscope $end
$scope module Modo_Energia $end
$var wire 2 r Nivel [0:1] $end
$var wire 1 * activo $end
$var wire 1 # clk $end
$var wire 1 , senal_5seg $end
$var wire 1 ] Entrada $end
$var wire 1 [ B_reset $end
$var parameter 32 s Parametro $end
$var parameter 32 t tiempo5seg $end
$var reg 3 u Contador_5segundos [2:0] $end
$var reg 2 v Contador_Nivel [0:1] $end
$var reg 4 w Contador_Tiempo [3:0] $end
$var reg 1 x Entrada_Sube_Nivel $end
$var reg 1 y Entrada_prev $end
$var reg 1 z senal_5segun $end
$upscope $end
$scope module Modo_Medicina $end
$var wire 2 { Nivel [0:1] $end
$var wire 1 ) activo $end
$var wire 1 # clk $end
$var wire 1 + senal_5seg $end
$var wire 1 \ Entrada $end
$var wire 1 [ B_reset $end
$var parameter 32 | Parametro $end
$var parameter 32 } tiempo5seg $end
$var reg 3 ~ Contador_5segundos [2:0] $end
$var reg 2 !" Contador_Nivel [0:1] $end
$var reg 4 "" Contador_Tiempo [3:0] $end
$var reg 1 #" Entrada_Sube_Nivel $end
$var reg 1 $" Entrada_prev $end
$var reg 1 %" senal_5segun $end
$upscope $end
$scope module utt $end
$var wire 1 ! b_energia $end
$var wire 1 " b_medicina $end
$var wire 1 # clk $end
$var wire 1 $ reset $end
$var wire 1 M sensor_fot_in $end
$var wire 1 L sensor_ult_in $end
$var wire 1 K test $end
$var wire 1 &" test_tmp $end
$var wire 1 '" sensor_ult_out $end
$var wire 1 (" sensor_fot_out $end
$var wire 1 [ reset_tmp $end
$var wire 1 )" medicina_tmp $end
$var wire 1 *" energia_tmp $end
$var reg 1 ] Senal_Energia $end
$var reg 1 \ Senal_Medicina $end
$var reg 1 Z Senal_Test $end
$var reg 1 U Senal_fot $end
$var reg 1 T Senal_ultrasonido $end
$scope module B_Energia $end
$var wire 1 ! boton_in $end
$var wire 1 # clk $end
$var wire 1 $ reset $end
$var parameter 32 +" COUNT_BOT $end
$var reg 1 *" boton_out $end
$var reg 3 ," counter [2:0] $end
$upscope $end
$scope module B_Medicina $end
$var wire 1 " boton_in $end
$var wire 1 # clk $end
$var wire 1 $ reset $end
$var parameter 32 -" COUNT_BOT $end
$var reg 1 )" boton_out $end
$var reg 3 ." counter [2:0] $end
$upscope $end
$scope module B_Reset $end
$var wire 1 # clk $end
$var wire 1 /" reset $end
$var wire 1 $ sensor_in $end
$var parameter 32 0" COUNT_BOT $end
$var reg 3 1" counter [2:0] $end
$var reg 1 [ sensor_out $end
$upscope $end
$scope module B_Test $end
$var wire 1 K boton_in $end
$var wire 1 # clk $end
$var wire 1 $ reset $end
$var parameter 32 2" COUNT_BOT $end
$var reg 1 &" boton_out $end
$var reg 3 3" counter [2:0] $end
$upscope $end
$scope module Sensor_fotocel $end
$var wire 1 # clk $end
$var wire 1 $ reset $end
$var wire 1 M sensor_in $end
$var parameter 32 4" COUNT_BOT $end
$var reg 4 5" counter [3:0] $end
$var reg 1 (" sensor_out $end
$upscope $end
$scope module Sensor_ultrasonido $end
$var wire 1 # clk $end
$var wire 1 $ reset $end
$var wire 1 L sensor_in $end
$var parameter 32 6" COUNT_BOT $end
$var reg 4 7" counter [3:0] $end
$var reg 1 '" sensor_out $end
$upscope $end
$upscope $end
$upscope $end
$upscope $end
$upscope $end
$enddefinitions $end
$comment Show the parameter values. $end
$dumpall
b1010 6"
b1010 4"
b101 2"
b111 0"
b101 -"
b101 +"
b111 }
b1010 |
b111 t
b1010 s
b111 k
b1010 j
b111 a
b1010 `
b0 E
b1 D
b10 C
b11 B
$end
#0
$dumpvars
b0 7"
b0 5"
b0 3"
b0 1"
z/"
b0 ."
b0 ,"
1*"
1)"
1("
1'"
1&"
0%"
0$"
0#"
b0 ""
b11 !"
b0 ~
b11 {
0z
0y
0x
b0 w
b11 v
b0 u
b11 r
0q
0p
0o
b0 n
b11 m
b0 l
1i
b11 h
0g
0f
0e
b0 d
b11 c
b0 b
1_
b11 ^
0]
0\
1[
0Z
b11 Y
b11 X
b11 W
b11 V
0U
0T
0S
0R
b11 Q
b11 P
b11 O
b11 N
zM
zL
zK
zJ
b0 I
b0 H
b0 G
b0 F
b11 A
z@
z?
b1 >
b1110 =
b0 <
bx ;
bx :
bx 9
bx 8
bx 7
b0 6
b0 5
b0 4
bx 3
02
b0 1
b1 0
0/
b11 .
b11 -
0,
0+
1*
1)
1(
b0 '
bx &
b1 %
0$
0#
z"
0!
$end
#1000
b1 1"
b1 5
b1 d
b1 n
b1 w
b1 ""
b11 '
b11 1
b11 H
1#
#2000
0#
#3000
b10 5
b10 1"
b10 ""
b10 w
b10 n
b10 d
1#
#4000
0#
#5000
b11 1"
b11 5
b11 d
b11 n
b11 w
b11 ""
1#
#6000
0#
#7000
b100 5
b100 1"
b100 ""
b100 w
b100 n
b100 d
1#
#8000
0#
#9000
b101 1"
b101 5
b101 d
b101 n
b101 w
b101 ""
1#
#10000
0#
#11000
b110 5
b110 1"
b110 ""
b110 w
b110 n
b110 d
1#
#12000
0#
#13000
b111 1"
b111 5
b111 d
b111 n
b111 w
b111 ""
1#
#14000
0#
#15000
b11111 &
b11111 3
b11 7
b0 8
b0 9
b0 :
b0 ;
1/
12
b1000 5
0(
0[
b0 1"
b1000 ""
b1000 w
b1000 n
b1000 d
1#
1!
#16000
0#
#17000
0/
02
b1 b
b0 d
b1 l
b0 n
b1 u
b0 w
b1 ~
b0 ""
b0 5
1#
#18000
0#
#19000
b1 ~
b1 u
b1 l
b1 b
1#
#20000
0#
#21000
b1 b
b1 l
b1 u
b1 ~
1#
#22000
0#
#23000
b1 ~
b1 u
b1 l
b1 b
1#
#24000
0#
#25000
b1 b
b1 l
b1 u
b1 ~
1#
#26000
0#
#27000
b1 ~
b1 u
b1 l
b1 b
1#
#28000
0#
#29000
b1 b
b1 l
b1 u
b1 ~
1#
#30000
0#
0!
#31000
b1 ~
b1 u
b1 l
b1 b
1#
#32000
0#
#33000
b1 b
b1 l
b1 u
b1 ~
1#
#34000
0#
#35000
b1 ~
b1 u
b1 l
b1 b
1#
#36000
0#
#37000
b1 b
b1 l
b1 u
b1 ~
1#
#38000
0#
#39000
b1 ~
b1 u
b1 l
b1 b
1#
#40000
0#
#41000
b1 b
b1 l
b1 u
b1 ~
1#
#42000
0#
#43000
b1 ~
b1 u
b1 l
b1 b
1#
#44000
0#
#45000
b1 b
b1 l
b1 u
b1 ~
1#
1!
#46000
0#
#47000
b1 ~
b1 u
b1 l
b1 b
1#
#48000
0#
#49000
b1 b
b1 l
b1 u
b1 ~
1#
#50000
0#
#51000
b1 ~
b1 u
b1 l
b1 b
1#
#52000
0#
#53000
b1 b
b1 l
b1 u
b1 ~
1#
#54000
0#
#55000
b1 ~
b1 u
b1 l
b1 b
1#
#56000
0#
#57000
b1 b
b1 l
b1 u
b1 ~
1#
#58000
0#
#59000
b1 ~
b1 u
b1 l
b1 b
1#
#60000
0#
0!
#61000
b1 b
b1 l
b1 u
b1 ~
1#
#62000
0#
#63000
b1 ~
b1 u
b1 l
b1 b
1#
#64000
0#
#65000
b1 b
b1 l
b1 u
b1 ~
1#
#66000
0#
#67000
b1 ~
b1 u
b1 l
b1 b
1#
#68000
0#
#69000
b1 b
b1 l
b1 u
b1 ~
1#
#70000
0#
#71000
b1 ~
b1 u
b1 l
b1 b
1#
#72000
0#
#73000
b1 b
b1 l
b1 u
b1 ~
1#
#74000
0#
#75000
b1 ~
b1 u
b1 l
b1 b
1#
1!
#76000
0#
#77000
b1 b
b1 l
b1 u
b1 ~
1#
#78000
0#
#79000
b1 ~
b1 u
b1 l
b1 b
1#
#80000
0#
#81000
b1 b
b1 l
b1 u
b1 ~
1#
#82000
0#
#83000
b1 ~
b1 u
b1 l
b1 b
1#
#84000
0#
#85000
b1 b
b1 l
b1 u
b1 ~
1#
#86000
0#
#87000
b1 ~
b1 u
b1 l
b1 b
1#
#88000
0#
#89000
b1 b
b1 l
b1 u
b1 ~
1#
#90000
0#
0!
#91000
b1 ~
b1 u
b1 l
b1 b
1#
#92000
0#
#93000
b1 b
b1 l
b1 u
b1 ~
1#
#94000
0#
#95000
b1 ~
b1 u
b1 l
b1 b
1#
#96000
0#
#97000
b1 b
b1 l
b1 u
b1 ~
1#
#98000
0#
#99000
b1 ~
b1 u
b1 l
b1 b
1#
#100000
0#
#101000
b1 b
b1 l
b1 u
b1 ~
1#
#102000
0#
#103000
b1 ~
b1 u
b1 l
b1 b
1#
#104000
0#
#105000
b1 b
b1 l
b1 u
b1 ~
1#
1!
#106000
0#
#107000
b1 ~
b1 u
b1 l
b1 b
1#
#108000
0#
#109000
b1 b
b1 l
b1 u
b1 ~
1#
#110000
0#
#111000
b1 ~
b1 u
b1 l
b1 b
1#
#112000
0#
#113000
b1 b
b1 l
b1 u
b1 ~
1#
#114000
0#
#115000
b1 ~
b1 u
b1 l
b1 b
1#
#116000
0#
#117000
b1 b
b1 l
b1 u
b1 ~
1#
#118000
0#
#119000
b1 ~
b1 u
b1 l
b1 b
1#
#120000
0#
0!
#121000
b1 b
b1 l
b1 u
b1 ~
1#
#122000
0#
#123000
b1 ~
b1 u
b1 l
b1 b
1#
#124000
0#
#125000
b1 b
b1 l
b1 u
b1 ~
1#
#126000
0#
#127000
b1 ~
b1 u
b1 l
b1 b
1#
#128000
0#
#129000
b1 b
b1 l
b1 u
b1 ~
1#
#130000
0#
#131000
b1 ~
b1 u
b1 l
b1 b
1#
#132000
0#
#133000
b1 b
b1 l
b1 u
b1 ~
1#
#134000
0#
#135000
b1 ~
b1 u
b1 l
b1 b
1#
1!
#136000
0#
#137000
b1 b
b1 l
b1 u
b1 ~
1#
#138000
0#
#139000
b1 ~
b1 u
b1 l
b1 b
1#
#140000
0#
#141000
b1 b
b1 l
b1 u
b1 ~
1#
#142000
0#
#143000
b1 ~
b1 u
b1 l
b1 b
1#
#144000
0#
#145000
b1 b
b1 l
b1 u
b1 ~
1#
#146000
0#
#147000
b1 ~
b1 u
b1 l
b1 b
1#
#148000
0#
#149000
b1 b
b1 l
b1 u
b1 ~
1#
#150000
0#
0!
#151000
b1 ~
b1 u
b1 l
b1 b
1#
#152000
0#
#153000
b1 b
b1 l
b1 u
b1 ~
1#
#154000
0#
#155000
b1 ~
b1 u
b1 l
b1 b
1#
#156000
0#
#157000
b1 b
b1 l
b1 u
b1 ~
1#
#158000
0#
#159000
b1 ~
b1 u
b1 l
b1 b
1#
#160000
0#
#161000
b1 b
b1 l
b1 u
b1 ~
1#
#162000
0#
#163000
b1 ~
b1 u
b1 l
b1 b
1#
#164000
0#
#165000
b1 b
b1 l
b1 u
b1 ~
1#
1!
#166000
0#
#167000
b1 ~
b1 u
b1 l
b1 b
1#
#168000
0#
#169000
b1 b
b1 l
b1 u
b1 ~
1#
#170000
0#
#171000
b1 ~
b1 u
b1 l
b1 b
1#
#172000
0#
#173000
b1 b
b1 l
b1 u
b1 ~
1#
#174000
0#
#175000
b1 ~
b1 u
b1 l
b1 b
1#
#176000
0#
#177000
b1 b
b1 l
b1 u
b1 ~
1#
#178000
0#
#179000
b1 ~
b1 u
b1 l
b1 b
1#
#180000
0#
0!
#181000
b1 b
b1 l
b1 u
b1 ~
1#
#182000
0#
#183000
b1 ~
b1 u
b1 l
b1 b
1#
#184000
0#
#185000
b1 b
b1 l
b1 u
b1 ~
1#
#186000
0#
#187000
b1 ~
b1 u
b1 l
b1 b
1#
#188000
0#
#189000
b1 b
b1 l
b1 u
b1 ~
1#
#190000
0#
#191000
b1 ~
b1 u
b1 l
b1 b
1#
#192000
0#
#193000
b1 b
b1 l
b1 u
b1 ~
1#
#194000
0#
#195000
b1 ~
b1 u
b1 l
b1 b
1#
1!
#196000
0#
#197000
b1 b
b1 l
b1 u
b1 ~
1#
#198000
0#
#199000
b1 ~
b1 u
b1 l
b1 b
1#
#200000
0#
#201000
b1 b
b1 l
b1 u
b1 ~
1#
#202000
0#
#203000
b1 ~
b1 u
b1 l
b1 b
1#
#204000
0#
#205000
b1 b
b1 l
b1 u
b1 ~
1#
#206000
0#
#207000
b1 ~
b1 u
b1 l
b1 b
1#
#208000
0#
#209000
b1 b
b1 l
b1 u
b1 ~
1#
#210000
0#
0!
#211000
b1 ~
b1 u
b1 l
b1 b
1#
#212000
0#
#213000
b1 b
b1 l
b1 u
b1 ~
1#
#214000
0#
#215000
b1 ~
b1 u
b1 l
b1 b
1#
#216000
0#
#217000
b1 b
b1 l
b1 u
b1 ~
1#
#218000
0#
#219000
b1 ~
b1 u
b1 l
b1 b
1#
#220000
0#
#221000
b1 b
b1 l
b1 u
b1 ~
1#
#222000
0#
#223000
b1 ~
b1 u
b1 l
b1 b
1#
#224000
0#
#225000
b1 b
b1 l
b1 u
b1 ~
1#
1!
#226000
0#
#227000
b1 ~
b1 u
b1 l
b1 b
1#
#228000
0#
#229000
b1 b
b1 l
b1 u
b1 ~
1#
#230000
0#
#231000
b1 ~
b1 u
b1 l
b1 b
1#
#232000
0#
#233000
b1 b
b1 l
b1 u
b1 ~
1#
#234000
0#
#235000
b1 ~
b1 u
b1 l
b1 b
1#
#236000
0#
#237000
b1 b
b1 l
b1 u
b1 ~
1#
#238000
0#
#239000
b1 ~
b1 u
b1 l
b1 b
1#
#240000
0#
0!
#241000
b1 b
b1 l
b1 u
b1 ~
1#
#242000
0#
#243000
b1 ~
b1 u
b1 l
b1 b
1#
#244000
0#
#245000
b1 b
b1 l
b1 u
b1 ~
1#
#246000
0#
#247000
b1 ~
b1 u
b1 l
b1 b
1#
#248000
0#
#249000
b1 b
b1 l
b1 u
b1 ~
1#
#250000
0#
#251000
b1 ~
b1 u
b1 l
b1 b
1#
#252000
0#
#253000
b1 b
b1 l
b1 u
b1 ~
1#
#254000
0#
#255000
b1 ~
b1 u
b1 l
b1 b
1#
1!
#256000
0#
#257000
b1 b
b1 l
b1 u
b1 ~
1#
#258000
0#
#259000
b1 ~
b1 u
b1 l
b1 b
1#
#260000
0#
#261000
b1 b
b1 l
b1 u
b1 ~
1#
#262000
0#
#263000
b1 ~
b1 u
b1 l
b1 b
1#
#264000
0#
#265000
b1 b
b1 l
b1 u
b1 ~
1#
#266000
0#
#267000
b1 ~
b1 u
b1 l
b1 b
1#
#268000
0#
#269000
b1 b
b1 l
b1 u
b1 ~
1#
#270000
0#
0!
#271000
b1 ~
b1 u
b1 l
b1 b
1#
#272000
0#
#273000
b1 b
b1 l
b1 u
b1 ~
1#
#274000
0#
#275000
b1 ~
b1 u
b1 l
b1 b
1#
#276000
0#
#277000
b1 b
b1 l
b1 u
b1 ~
1#
#278000
0#
#279000
b1 ~
b1 u
b1 l
b1 b
1#
#280000
0#
#281000
b1 b
b1 l
b1 u
b1 ~
1#
#282000
0#
#283000
b1 ~
b1 u
b1 l
b1 b
1#
#284000
0#
#285000
b1 b
b1 l
b1 u
b1 ~
1#
1!
#286000
0#
#287000
b1 ~
b1 u
b1 l
b1 b
1#
#288000
0#
#289000
b1 b
b1 l
b1 u
b1 ~
1#
#290000
0#
#291000
b1 ~
b1 u
b1 l
b1 b
1#
#292000
0#
#293000
b1 b
b1 l
b1 u
b1 ~
1#
#294000
0#
#295000
b1 ~
b1 u
b1 l
b1 b
1#
#296000
0#
#297000
b1 b
b1 l
b1 u
b1 ~
1#
#298000
0#
#299000
b1 ~
b1 u
b1 l
b1 b
1#
#300000
0#
0!
#301000
b1 b
b1 l
b1 u
b1 ~
1#
#302000
0#
#303000
b1 ~
b1 u
b1 l
b1 b
1#
#304000
0#
#305000
b1 b
b1 l
b1 u
b1 ~
1#
#306000
0#
#307000
b1 ~
b1 u
b1 l
b1 b
1#
#308000
0#
#309000
b1 b
b1 l
b1 u
b1 ~
1#
#310000
0#
#311000
b1 ~
b1 u
b1 l
b1 b
1#
#312000
0#
#313000
b1 b
b1 l
b1 u
b1 ~
1#
#314000
0#
#315000
b1 ~
b1 u
b1 l
b1 b
1#
1!
#316000
0#
#317000
b1 b
b1 l
b1 u
b1 ~
1#
#318000
0#
#319000
b1 ~
b1 u
b1 l
b1 b
1#
#320000
0#
#321000
b1 b
b1 l
b1 u
b1 ~
1#
#322000
0#
#323000
b1 ~
b1 u
b1 l
b1 b
1#
#324000
0#
#325000
b1 b
b1 l
b1 u
b1 ~
1#
#326000
0#
#327000
b1 ~
b1 u
b1 l
b1 b
1#
#328000
0#
#329000
b1 b
b1 l
b1 u
b1 ~
1#
#330000
0#
0!
#331000
b1 ~
b1 u
b1 l
b1 b
1#
#332000
0#
#333000
b1 b
b1 l
b1 u
b1 ~
1#
#334000
0#
#335000
b1 ~
b1 u
b1 l
b1 b
1#
#336000
0#
#337000
b1 b
b1 l
b1 u
b1 ~
1#
#338000
0#
#339000
b1 ~
b1 u
b1 l
b1 b
1#
#340000
0#
#341000
b1 b
b1 l
b1 u
b1 ~
1#
#342000
0#
#343000
b1 ~
b1 u
b1 l
b1 b
1#
#344000
0#
#345000
b1 b
b1 l
b1 u
b1 ~
1#
1!
#346000
0#
#347000
b1 ~
b1 u
b1 l
b1 b
1#
#348000
0#
#349000
b1 b
b1 l
b1 u
b1 ~
1#
#350000
0#
#351000
b1 ~
b1 u
b1 l
b1 b
1#
#352000
0#
#353000
b1 b
b1 l
b1 u
b1 ~
1#
#354000
0#
#355000
b1 ~
b1 u
b1 l
b1 b
1#
#356000
0#
#357000
b1 b
b1 l
b1 u
b1 ~
1#
#358000
0#
#359000
b1 ~
b1 u
b1 l
b1 b
1#
#360000
0#
0!
#361000
b1 b
b1 l
b1 u
b1 ~
1#
#362000
0#
#363000
b1 ~
b1 u
b1 l
b1 b
1#
#364000
0#
#365000
b1 b
b1 l
b1 u
b1 ~
1#
#366000
0#
#367000
b1 ~
b1 u
b1 l
b1 b
1#
#368000
0#
#369000
b1 b
b1 l
b1 u
b1 ~
1#
#370000
0#
#371000
b1 ~
b1 u
b1 l
b1 b
1#
#372000
0#
#373000
b1 b
b1 l
b1 u
b1 ~
1#
#374000
0#
#375000
b1 ~
b1 u
b1 l
b1 b
1#
1!
#376000
0#
#377000
b1 b
b1 l
b1 u
b1 ~
1#
#378000
0#
#379000
b1 ~
b1 u
b1 l
b1 b
1#
#380000
0#
#381000
b1 b
b1 l
b1 u
b1 ~
1#
#382000
0#
#383000
b1 ~
b1 u
b1 l
b1 b
1#
#384000
0#
#385000
b1 b
b1 l
b1 u
b1 ~
1#
#386000
0#
#387000
b1 ~
b1 u
b1 l
b1 b
1#
#388000
0#
#389000
b1 b
b1 l
b1 u
b1 ~
1#
#390000
0#
0!
#391000
b1 ~
b1 u
b1 l
b1 b
1#
#392000
0#
#393000
b1 b
b1 l
b1 u
b1 ~
1#
#394000
0#
#395000
b1 ~
b1 u
b1 l
b1 b
1#
#396000
0#
#397000
b1 b
b1 l
b1 u
b1 ~
1#
#398000
0#
#399000
b1 ~
b1 u
b1 l
b1 b
1#
#400000
0#
#401000
b1 b
b1 l
b1 u
b1 ~
1#
#402000
0#
#403000
b1 ~
b1 u
b1 l
b1 b
1#
#404000
0#
#405000
b1 b
b1 l
b1 u
b1 ~
1#
1!
#406000
0#
#407000
b1 ~
b1 u
b1 l
b1 b
1#
#408000
0#
#409000
b1 b
b1 l
b1 u
b1 ~
1#
#410000
0#
#411000
b1 ~
b1 u
b1 l
b1 b
1#
#412000
0#
#413000
b1 b
b1 l
b1 u
b1 ~
1#
#414000
0#
#415000
b1 ~
b1 u
b1 l
b1 b
1#
#416000
0#
#417000
b1 b
b1 l
b1 u
b1 ~
1#
#418000
0#
#419000
b1 ~
b1 u
b1 l
b1 b
1#
#420000
0#
0!
#421000
b1 b
b1 l
b1 u
b1 ~
1#
#422000
0#
#423000
b1 ~
b1 u
b1 l
b1 b
1#
#424000
0#
#425000
b1 b
b1 l
b1 u
b1 ~
1#
#426000
0#
#427000
b1 ~
b1 u
b1 l
b1 b
1#
#428000
0#
#429000
b1 b
b1 l
b1 u
b1 ~
1#
#430000
0#
#431000
b1 ~
b1 u
b1 l
b1 b
1#
#432000
0#
#433000
b1 b
b1 l
b1 u
b1 ~
1#
#434000
0#
#435000
b1 ~
b1 u
b1 l
b1 b
1#
1!
#436000
0#
#437000
b1 b
b1 l
b1 u
b1 ~
1#
#438000
0#
#439000
b1 ~
b1 u
b1 l
b1 b
1#
#440000
0#
#441000
b1 b
b1 l
b1 u
b1 ~
1#
#442000
0#
#443000
b1 ~
b1 u
b1 l
b1 b
1#
#444000
0#
#445000
b1 b
b1 l
b1 u
b1 ~
1#
#446000
0#
#447000
b1 ~
b1 u
b1 l
b1 b
1#
#448000
0#
#449000
b1 b
b1 l
b1 u
b1 ~
1#
#450000
0#
0!
#451000
b1 ~
b1 u
b1 l
b1 b
1#
#452000
0#
#453000
b1 b
b1 l
b1 u
b1 ~
1#
#454000
0#
#455000
b1 ~
b1 u
b1 l
b1 b
1#
#456000
0#
#457000
b1 b
b1 l
b1 u
b1 ~
1#
#458000
0#
#459000
b1 ~
b1 u
b1 l
b1 b
1#
#460000
0#
#461000
b1 b
b1 l
b1 u
b1 ~
1#
#462000
0#
#463000
b1 ~
b1 u
b1 l
b1 b
1#
#464000
0#
#465000
b1 b
b1 l
b1 u
b1 ~
1#
1!
#466000
0#
#467000
b1 ~
b1 u
b1 l
b1 b
1#
#468000
0#
#469000
b1 b
b1 l
b1 u
b1 ~
1#
#470000
0#
#471000
b1 ~
b1 u
b1 l
b1 b
1#
#472000
0#
#473000
b1 b
b1 l
b1 u
b1 ~
1#
#474000
0#
#475000
b1 ~
b1 u
b1 l
b1 b
1#
#476000
0#
#477000
b1 b
b1 l
b1 u
b1 ~
1#
#478000
0#
#479000
b1 ~
b1 u
b1 l
b1 b
1#
#480000
0#
0!
#481000
b1 b
b1 l
b1 u
b1 ~
1#
#482000
0#
#483000
b1 ~
b1 u
b1 l
b1 b
1#
#484000
0#
#485000
b1 b
b1 l
b1 u
b1 ~
1#
#486000
0#
#487000
b1 ~
b1 u
b1 l
b1 b
1#
#488000
0#
#489000
b1 b
b1 l
b1 u
b1 ~
1#
#490000
0#
#491000
b1 ~
b1 u
b1 l
b1 b
1#
#492000
0#
#493000
b1 b
b1 l
b1 u
b1 ~
1#
#494000
0#
#495000
b1 ~
b1 u
b1 l
b1 b
1#
1!
#496000
0#
#497000
b1 b
b1 l
b1 u
b1 ~
1#
#498000
0#
#499000
b1 ~
b1 u
b1 l
b1 b
1#
#500000
0#
1$
#501000
1(
1[
b0 1"
b1 b
b1 l
b1 u
b1 ~
1#
#502000
0#
#503000
b1 5
b10 ~
b1 ""
b10 u
b1 w
b10 l
b1 n
b10 b
b1 d
1#
#504000
0#
#505000
b10 5
b11 b
b10 d
b11 l
b10 n
b11 u
b10 w
b11 ~
b10 ""
1#
#506000
0#
#507000
b11 5
b100 ~
b11 ""
b100 u
b11 w
b100 l
b11 n
b100 b
b11 d
1#
#508000
0#
#509000
b100 5
b101 b
b100 d
b101 l
b100 n
b101 u
b100 w
b101 ~
b100 ""
1#
#510000
0#
0!
#511000
b101 5
b1 ,"
b110 ~
b101 ""
b110 u
b101 w
b110 l
b101 n
b110 b
b101 d
1#
#512000
0#
#513000
b10 ,"
b110 5
b111 b
b110 d
b111 l
b110 n
b111 u
b110 w
b111 ~
b110 ""
1#
#514000
0#
#515000
b111 5
b11 ,"
b0 ~
b111 ""
b0 u
b111 w
b0 l
b111 n
b0 b
b111 d
1#
#516000
0#
#517000
b110 %
b110 0
b110 >
b1 6
b11 4
b11 <
b11110 &
b11110 3
1/
12
b100 ,"
b1000 5
b1000 d
b1000 n
b1000 w
b1000 ""
1#
#518000
0#
#519000
b1001 5
b101 ,"
b1001 ""
b1001 w
b1001 n
b1001 d
1#
#520000
0#
#521000
1]
0*"
b0 ,"
b1010 5
b1010 d
b1010 n
b1010 w
b1010 ""
1#
#522000
0#
#523000
b1 F
b1011 5
b0 ""
b0 w
b0 n
b0 d
b10 -
b10 Q
b10 V
b10 {
b10 !"
b10 .
b10 A
b10 P
b10 W
b10 r
b10 v
1y
1x
b10 O
b10 X
b10 h
b10 m
b10 N
b10 Y
b10 ^
b10 c
1#
#524000
0#
#525000
b1 ,"
b1100 5
b1 I
b1 G
b1 d
b1 n
b1 w
0x
b1 ""
b10 '
b10 1
b10 H
1#
1!
#526000
0#
#527000
b1101 5
b10 ,"
b10 ""
b10 w
b10 n
b10 d
b1100 '
b1100 1
b1100 H
1#
#528000
0#
#529000
b11 ,"
b1110 5
b11 d
b11 n
b11 w
b11 ""
1#
#530000
0#
#531000
b1111 5
b100 ,"
b100 ""
b100 w
b100 n
b100 d
1#
#532000
0#
#533000
0/
02
b101 ,"
b10000 5
b101 d
b101 n
b101 w
b101 ""
1#
#534000
0#
#535000
b10001 5
1*"
b0 ,"
b110 ""
b110 w
b110 n
b110 d
1#
#536000
0#
#537000
b10010 5
b111 d
b111 n
b111 w
b111 ""
1#
#538000
0#
#539000
b10011 5
b1000 ""
b1000 w
b1000 n
b1000 d
1#
#540000
0#
0!
#541000
b1 ,"
b10100 5
b1001 d
b1001 n
b1001 w
b1001 ""
1#
#542000
0#
#543000
b10101 5
b10 ,"
b1010 ""
b1010 w
b1010 n
b1010 d
1#
#544000
0#
