codigos/Testbench/NEGADOS/Maquina_De_Estados_Y_Modos_TB/build/Maq_Est_Y_Modos.vcd
$date
	Sat Aug 24 14:08:01 2024
$end
$version
	Icarus Verilog
$end
$timescale
	1s
$end
$scope module Maq_Est_Y_Modos_TB $end
$scope module uut $end
$var wire 1 ! Boton_Comida $end
$var wire 1 " Boton_Medicina $end
$var wire 1 # clk $end
$var wire 1 $ reset $end
$var wire 1 % Senal_Reset $end
$var wire 1 & Senal_Activo_Medicina $end
$var wire 1 ' Senal_Activo_Comida $end
$var wire 1 ( Senal_5Seg_Medicina $end
$var wire 1 ) Senal_5Seg_Comida $end
$var wire 2 * Cable_Niveles_Medicina [1:0] $end
$var wire 2 + Cable_Niveles_Comida [1:0] $end
$scope module maq_est $end
$var wire 1 , Sensor_Luz $end
$var wire 1 - Sensor_UltraSonido $end
$var wire 1 # clk $end
$var wire 1 % reset $end
$var wire 2 . Nivel_Comida [1:0] $end
$var wire 1 ( Boton_Medicina $end
$var wire 1 ) Boton_Comida $end
$var parameter 2 / Estado_Comiendo $end
$var parameter 2 0 Estado_Desnutrido $end
$var parameter 2 1 Estado_Hambre $end
$var parameter 2 2 Estado_IDLE $end
$var reg 1 ' Activo_Comida $end
$var reg 1 & Activo_Medicina $end
$var reg 2 3 Estado_Siguiente [1:0] $end
$var reg 2 4 Estados [1:0] $end
$var reg 2 5 Visualizacion [1:0] $end
$upscope $end
$scope module mods $end
$var wire 1 ' Activo_Comida $end
$var wire 1 & Activo_Medicina $end
$var wire 1 6 B_reset $end
$var wire 1 ! Bot_Energia $end
$var wire 1 " Bot_Medicina $end
$var wire 1 $ Bot_Reset $end
$var wire 1 7 Bot_Test $end
$var wire 1 8 Entrada_Animo $end
$var wire 1 9 Entrada_Descanso $end
$var wire 2 : LED_Animo [0:1] $end
$var wire 2 ; LED_Descanso [0:1] $end
$var wire 2 < LED_Energia [0:1] $end
$var wire 2 = LED_Medicina [0:1] $end
$var wire 1 % Reset_General $end
$var wire 1 # clk $end
$var wire 1 ( senal_5segMedicina $end
$var wire 1 ) senal_5segEnergia $end
$var wire 1 > senal_5segDescanso $end
$var wire 1 ? senal_5segAnimo $end
$var wire 1 @ S_ultra $end
$var wire 1 A S_fotocel $end
$var wire 2 B Nivel_Medicina [0:1] $end
$var wire 2 C Nivel_Energia [0:1] $end
$var wire 2 D Nivel_Descanso [0:1] $end
$var wire 2 E Nivel_Animo [0:1] $end
$var wire 1 F B_Test $end
$var wire 1 G B_Reset $end
$var wire 1 H B_Medicina $end
$var wire 1 I B_Energia $end
$scope module Modo_Animo $end
$var wire 1 $ B_reset $end
$var wire 2 J Nivel [0:1] $end
$var wire 1 K activo $end
$var wire 1 # clk $end
$var wire 1 ? senal_5seg $end
$var wire 1 @ Entrada $end
$var parameter 32 L Parametro $end
$var parameter 32 M tiempo5seg $end
$var reg 3 N Contador_5segundos [2:0] $end
$var reg 2 O Contador_Nivel [0:1] $end
$var reg 4 P Contador_Tiempo [3:0] $end
$var reg 1 Q Entrada_Sube_Nivel $end
$var reg 1 R Entrada_prev $end
$var reg 1 S senal_5segun $end
$upscope $end
$scope module Modo_Descanso $end
$var wire 1 $ B_reset $end
$var wire 2 T Nivel [0:1] $end
$var wire 1 U activo $end
$var wire 1 # clk $end
$var wire 1 > senal_5seg $end
$var wire 1 A Entrada $end
$var parameter 32 V Parametro $end
$var parameter 32 W tiempo5seg $end
$var reg 3 X Contador_5segundos [2:0] $end
$var reg 2 Y Contador_Nivel [0:1] $end
$var reg 4 Z Contador_Tiempo [3:0] $end
$var reg 1 [ Entrada_Sube_Nivel $end
$var reg 1 \ Entrada_prev $end
$var reg 1 ] senal_5segun $end
$upscope $end
$scope module Modo_Energia $end
$var wire 1 $ B_reset $end
$var wire 2 ^ Nivel [0:1] $end
$var wire 1 ' activo $end
$var wire 1 # clk $end
$var wire 1 ) senal_5seg $end
$var wire 1 I Entrada $end
$var parameter 32 _ Parametro $end
$var parameter 32 ` tiempo5seg $end
$var reg 3 a Contador_5segundos [2:0] $end
$var reg 2 b Contador_Nivel [0:1] $end
$var reg 4 c Contador_Tiempo [3:0] $end
$var reg 1 d Entrada_Sube_Nivel $end
$var reg 1 e Entrada_prev $end
$var reg 1 f senal_5segun $end
$upscope $end
$scope module Modo_Medicina $end
$var wire 1 g B_reset $end
$var wire 2 h Nivel [0:1] $end
$var wire 1 & activo $end
$var wire 1 # clk $end
$var wire 1 ( senal_5seg $end
$var wire 1 H Entrada $end
$var parameter 32 i Parametro $end
$var parameter 32 j tiempo5seg $end
$var reg 3 k Contador_5segundos [2:0] $end
$var reg 2 l Contador_Nivel [0:1] $end
$var reg 4 m Contador_Tiempo [3:0] $end
$var reg 1 n Entrada_Sube_Nivel $end
$var reg 1 o Entrada_prev $end
$var reg 1 p senal_5segun $end
$upscope $end
$scope module utt $end
$var wire 1 ! b_energia $end
$var wire 1 " b_medicina $end
$var wire 1 # clk $end
$var wire 1 $ reset $end
$var wire 1 9 sensor_fot_in $end
$var wire 1 8 sensor_ult_in $end
$var wire 1 7 test $end
$var wire 1 q test_tmp $end
$var wire 1 r sensor_ult_out $end
$var wire 1 s sensor_fot_out $end
$var wire 1 t reset_tmp $end
$var wire 1 u medicina_tmp $end
$var wire 1 v energia_tmp $end
$var reg 1 I Senal_Energia $end
$var reg 1 H Senal_Medicina $end
$var reg 1 G Senal_Reset $end
$var reg 1 F Senal_Test $end
$var reg 1 A Senal_fot $end
$var reg 1 @ Senal_ultrasonido $end
$scope module B_Energia $end
$var wire 1 ! boton_in $end
$var wire 1 # clk $end
$var wire 1 $ reset $end
$var parameter 32 w COUNT_BOT $end
$var reg 1 v boton_out $end
$var reg 3 x counter [2:0] $end
$upscope $end
$scope module B_Medicina $end
$var wire 1 " boton_in $end
$var wire 1 # clk $end
$var wire 1 $ reset $end
$var parameter 32 y COUNT_BOT $end
$var reg 1 u boton_out $end
$var reg 3 z counter [2:0] $end
$upscope $end
$scope module B_Reset $end
$var wire 1 $ boton_in $end
$var wire 1 # clk $end
$var wire 1 $ reset $end
$var parameter 32 { COUNT_BOT $end
$var reg 1 t boton_out $end
$var reg 3 | counter [2:0] $end
$upscope $end
$scope module B_Test $end
$var wire 1 7 boton_in $end
$var wire 1 # clk $end
$var wire 1 $ reset $end
$var parameter 32 } COUNT_BOT $end
$var reg 1 q boton_out $end
$var reg 3 ~ counter [2:0] $end
$upscope $end
$scope module Sensor_fotocel $end
$var wire 1 # clk $end
$var wire 1 $ reset $end
$var wire 1 9 sensor_in $end
$var parameter 32 !" COUNT_BOT $end
$var reg 4 "" counter [3:0] $end
$var reg 1 s sensor_out $end
$upscope $end
$scope module Sensor_ultrasonido $end
$var wire 1 # clk $end
$var wire 1 $ reset $end
$var wire 1 8 sensor_in $end
$var parameter 32 #" COUNT_BOT $end
$var reg 4 $" counter [3:0] $end
$var reg 1 r sensor_out $end
$upscope $end
$upscope $end
$upscope $end
$upscope $end
$upscope $end
$enddefinitions $end
$comment Show the parameter values. $end
$dumpall
b1010 #"
b1010 !"
b101 }
b101 {
b101 y
b101 w
b111 j
b1010 i
b111 `
b1010 _
b111 W
b1010 V
b111 M
b1010 L
b0 2
b1 1
b10 0
b11 /
$end
#0
$dumpvars
b0 $"
b0 ""
b0 ~
b0 |
b0 z
b0 x
0v
0u
0t
0s
0r
0q
0p
0o
0n
b0 m
b11 l
b0 k
b11 h
zg
0f
0e
0d
b0 c
b11 b
b0 a
b11 ^
0]
0\
0[
b0 Z
b11 Y
b0 X
1U
b11 T
0S
0R
0Q
b0 P
b11 O
b0 N
1K
b11 J
0I
0H
0G
0F
b11 E
b11 D
b11 C
b11 B
0A
0@
0?
0>
b11 =
b11 <
b11 ;
b11 :
z9
z8
z7
z6
b0 5
b0 4
b0 3
b11 .
z-
z,
b11 +
b11 *
0)
0(
1'
1&
0%
0$
0#
z"
0!
$end
#1
b1 P
b1 Z
b1 c
b1 m
1#
#2
0#
#3
b10 m
b10 c
b10 Z
b10 P
1#
#4
0#
#5
b11 P
b11 Z
b11 c
b11 m
1#
#6
0#
#7
b100 m
b100 c
b100 Z
b100 P
1#
#8
0#
#9
b101 P
b101 Z
b101 c
b101 m
1#
#10
0#
#11
b110 m
b110 c
b110 Z
b110 P
1#
#12
0#
#13
b111 P
b111 Z
b111 c
b111 m
1#
#14
0#
#15
b1000 m
b1000 c
b1000 Z
b1000 P
1#
#16
0#
#17
b1001 P
b1001 Z
b1001 c
b1001 m
1#
#18
0#
#19
b1010 m
b1010 c
b1010 Z
b1010 P
1#
#20
0#
#21
b1 3
b0 P
b0 Z
b0 c
b0 m
b10 :
b10 E
b10 J
b10 O
b10 ;
b10 D
b10 T
b10 Y
b10 +
b10 .
b10 <
b10 C
b10 ^
b10 b
b10 *
b10 =
b10 B
b10 h
b10 l
1#
#22
0#
#23
b1 5
b1 4
b1 m
b1 c
b1 Z
b1 P
1#
#24
0#
#25
b1 x
b10 P
b10 Z
b10 c
b10 m
1#
1!
#26
0#
#27
b10 x
b11 m
b11 c
b11 Z
b11 P
1#
#28
0#
#29
b11 x
b100 P
b100 Z
b100 c
b100 m
1#
#30
0#
#31
b100 x
b101 m
b101 c
b101 Z
b101 P
1#
#32
0#
#33
b101 x
b110 P
b110 Z
b110 c
b110 m
1#
#34
0#
#35
1I
1v
b0 x
b111 m
b111 c
b111 Z
b111 P
1#
#36
0#
#37
b11 3
b0 c
b1000 P
b1000 Z
1)
1f
b10 a
b11 +
b11 .
b11 <
b11 C
b11 ^
b11 b
1e
1d
b1000 m
1#
#38
0#
#39
b11 5
0&
b11 4
b1001 m
b11 a
b1 c
0d
b1001 Z
b1001 P
1#
#40
0#
#41
b1010 P
b1010 Z
b100 a
b10 c
1#
#42
0#
#43
b0 Z
b0 P
b101 a
b11 c
b1 ;
b1 D
b1 T
b1 Y
b1 :
b1 E
b1 J
b1 O
1#
#44
0#
#45
b1 P
b1 Z
b110 a
b100 c
1#
#46
0#
#47
b111 a
b101 c
b10 Z
b10 P
1#
#48
0#
#49
b0 3
b11 P
b11 Z
b0 a
0)
0f
b110 c
1#
#50
0#
0!
#51
b0 5
1&
b0 4
b1 x
b111 c
b100 Z
b100 P
1#
#52
0#
#53
b10 x
b101 P
b101 Z
b1000 c
b1010 m
1#
#54
0#
#55
b0 m
b11 x
b1 *
b1 =
b1 B
b1 h
b1 l
b1001 c
b110 Z
b110 P
1#
#56
0#
#57
b100 x
b111 P
b111 Z
b1010 c
b1 m
1#
#58
0#
#59
b1 3
b0 c
b101 x
b10 m
b10 +
b10 .
b10 <
b10 C
b10 ^
b10 b
b1000 Z
b1000 P
1#
#60
0#
#61
b1 4
b1 5
0v
b0 x
b1001 P
b1001 Z
b1 c
b11 m
1#
#62
0#
#63
b100 m
b10 c
b1010 Z
b1010 P
1#
#64
0#
#65
b0 P
b0 Z
b0 :
b0 E
b0 J
b0 O
b0 ;
b0 D
b0 T
b0 Y
b11 c
b101 m
1#
#66
0#
#67
b110 m
b100 c
b1 Z
b1 P
1#
#68
0#
#69
b10 P
b10 Z
b101 c
b111 m
1#
#70
0#
#71
b1000 m
b110 c
b11 Z
b11 P
1#
#72
0#
#73
b100 P
b100 Z
b111 c
b1001 m
1#
#74
0#
#75
b1 x
b1010 m
b1000 c
b101 Z
b101 P
1#
1!
#76
0#
#77
b10 x
b0 m
b110 P
b110 Z
b1001 c
b0 *
b0 =
b0 B
b0 h
b0 l
1#
#78
0#
#79
b11 x
b1 m
b1010 c
b111 Z
b111 P
1#
#80
0#
#81
b100 x
b0 c
b1000 P
b1000 Z
b1 +
b1 .
b1 <
b1 C
b1 ^
b1 b
b10 m
1#
#82
0#
#83
b101 x
b11 m
b1 c
b1001 Z
b1001 P
1#
#84
0#
#85
0I
1v
b0 x
b1010 P
b1010 Z
b10 c
b100 m
1#
#86
0#
#87
b11 3
b0 c
b101 m
1)
1f
b10 a
b10 +
b10 .
b10 <
b10 C
b10 ^
b10 b
0e
1d
b1011 Z
b1011 P
1#
#88
0#
#89
b11 4
b11 5
0&
b1100 P
b1100 Z
b11 a
b1 c
0d
b110 m
1#
#90
0#
#91
b100 a
b10 c
b1101 Z
b1101 P
1#
#92
0#
#93
b1110 P
b1110 Z
b101 a
b11 c
1#
#94
0#
#95
b110 a
b100 c
b1111 Z
b1111 P
1#
#96
0#
#97
b0 P
b0 Z
b111 a
b101 c
1#
#98
0#
#99
b1 3
b0 a
0)
0f
b110 c
b1 Z
b1 P
1#
#100
0#
0!
#101
b1 4
b1 5
1&
b1 x
b10 P
b10 Z
b111 c
1#
#102
0#
#103
b10 x
b111 m
b1000 c
b11 Z
b11 P
1#
#104
0#
#105
b11 x
b100 P
b100 Z
b1001 c
b1000 m
1#
#106
0#
#107
b100 x
b1001 m
b1010 c
b101 Z
b101 P
1#
#108
0#
#109
b101 x
b0 c
b110 P
b110 Z
b1 +
b1 .
b1 <
b1 C
b1 ^
b1 b
b1010 m
1#
#110
0#
#111
0v
b0 x
b1011 m
b1 c
b111 Z
b111 P
1#
#112
0#
#113
b1000 P
b1000 Z
b10 c
b1100 m
1#
#114
0#
#115
b1101 m
b11 c
b1001 Z
b1001 P
1#
#116
0#
#117
b1010 P
b1010 Z
b100 c
b1110 m
1#
#118
0#
#119
b1111 m
b101 c
b1011 Z
b1011 P
1#
#120
0#
#121
b1100 P
b1100 Z
b110 c
b0 m
1#
#122
0#
#123
b1 m
b111 c
b1101 Z
b1101 P
1#
#124
0#
#125
b1 x
b1110 P
b1110 Z
b1000 c
b10 m
1#
1!
#126
0#
#127
b10 x
b11 m
b1001 c
b1111 Z
b1111 P
1#
#128
0#
#129
b11 x
b0 P
b0 Z
b1010 c
b100 m
1#
#130
0#
#131
b10 3
b0 c
b100 x
b101 m
b0 +
b0 .
b0 <
b0 C
b0 ^
b0 b
b1 Z
b1 P
1#
#132
0#
#133
b10 4
b10 5
b101 x
b10 P
b10 Z
b1 c
b110 m
1#
#134
0#
#135
1I
1v
b0 x
b111 m
b10 c
b11 Z
b11 P
1#
#136
0#
#137
b11 3
b0 c
b100 P
b100 Z
1)
1f
b10 a
b1 +
b1 .
b1 <
b1 C
b1 ^
b1 b
1e
1d
b1000 m
1#
#138
0#
#139
b11 5
0&
b11 4
b1001 m
b11 a
b1 c
0d
b101 Z
b101 P
1#
#140
0#
#141
b110 P
b110 Z
b100 a
b10 c
1#
#142
0#
#143
b101 a
b11 c
b111 Z
b111 P
1#
#144
0#
#145
b1000 P
b1000 Z
b110 a
b100 c
1#
#146
0#
#147
b111 a
b101 c
b1001 Z
b1001 P
1#
#148
0#
#149
b10 3
b1010 P
b1010 Z
b0 a
0)
0f
b110 c
1#
#150
0#
0!
#151
b10 5
1&
b10 4
b1 x
b111 c
b1011 Z
b1011 P
1#
#152
0#
#153
b10 x
b1100 P
b1100 Z
b1000 c
b1010 m
1#
#154
0#
#155
b11 x
b1011 m
b1001 c
b1101 Z
b1101 P
1#
#156
0#
#157
b100 x
b1110 P
b1110 Z
b1010 c
b1100 m
1#
#158
0#
#159
b0 c
b101 x
b1101 m
b0 +
b0 .
b0 <
b0 C
b0 ^
b0 b
b1111 Z
b1111 P
1#
#160
0#
#161
0v
b0 x
b0 P
b0 Z
b1 c
b1110 m
1#
#162
0#
#163
b1111 m
b10 c
b1 Z
b1 P
1#
#164
0#
#165
b10 P
b10 Z
b11 c
b0 m
1#
#166
0#
#167
b1 m
b100 c
b11 Z
b11 P
1#
#168
0#
#169
b100 P
b100 Z
b101 c
b10 m
1#
#170
0#
#171
b11 m
b110 c
b101 Z
b101 P
1#
#172
0#
#173
b110 P
b110 Z
b111 c
b100 m
1#
#174
0#
#175
b1 x
b101 m
b1000 c
b111 Z
b111 P
1#
1!
#176
0#
#177
b10 x
b1000 P
b1000 Z
b1001 c
b110 m
1#
#178
0#
#179
b11 x
b111 m
b1010 c
b1001 Z
b1001 P
1#
#180
0#
#181
b100 x
b1010 P
b1010 Z
b1011 c
b1000 m
1#
#182
0#
#183
b101 x
b1001 m
b1100 c
b1011 Z
b1011 P
1#
#184
0#
#185
0I
1v
b0 x
b1100 P
b1100 Z
b1101 c
b1010 m
1#
#186
0#
#187
b11 3
b0 c
b1011 m
1)
1f
b10 a
b1 +
b1 .
b1 <
b1 C
b1 ^
b1 b
0e
1d
b1101 Z
b1101 P
1#
#188
0#
#189
b11 4
b11 5
0&
b1110 P
b1110 Z
b11 a
b1 c
0d
b1100 m
1#
#190
0#
#191
b100 a
b10 c
b1111 Z
b1111 P
1#
#192
0#
#193
b0 P
b0 Z
b101 a
b11 c
1#
#194
0#
#195
b110 a
b100 c
b1 Z
b1 P
1#
#196
0#
#197
b10 P
b10 Z
b111 a
b101 c
1#
#198
0#
#199
b10 3
b0 a
0)
0f
b110 c
b11 Z
b11 P
1#
#200
0#
0!
#201
b10 4
b10 5
1&
b1 x
b100 P
b100 Z
b111 c
1#
#202
0#
#203
b10 x
b1101 m
b1000 c
b101 Z
b101 P
1#
#204
0#
#205
b11 x
b110 P
b110 Z
b1001 c
b1110 m
1#
#206
0#
#207
b100 x
b1111 m
b1010 c
b111 Z
b111 P
1#
#208
0#
#209
b101 x
b0 c
b1000 P
b1000 Z
b0 +
b0 .
b0 <
b0 C
b0 ^
b0 b
b0 m
1#
#210
0#
#211
0v
b0 x
b1 m
b1 c
b1001 Z
b1001 P
1#
#212
0#
#213
b1010 P
b1010 Z
b10 c
b10 m
1#
#214
0#
#215
b11 m
b11 c
b1011 Z
b1011 P
1#
#216
0#
#217
b1100 P
b1100 Z
b100 c
b100 m
1#
#218
0#
#219
b101 m
b101 c
b1101 Z
b1101 P
1#
#220
0#
#221
b1110 P
b1110 Z
b110 c
b110 m
1#
#222
0#
#223
b111 m
b111 c
b1111 Z
b1111 P
1#
#224
0#
#225
b1 x
b0 P
b0 Z
b1000 c
b1000 m
1#
1!
#226
0#
#227
b10 x
b1001 m
b1001 c
b1 Z
b1 P
1#
#228
0#
#229
b11 x
b10 P
b10 Z
b1010 c
b1010 m
1#
#230
0#
#231
b100 x
b1011 m
b1011 c
b11 Z
b11 P
1#
#232
0#
#233
b101 x
b100 P
b100 Z
b1100 c
b1100 m
1#
#234
0#
#235
1I
1v
b0 x
b1101 m
b1101 c
b101 Z
b101 P
1#
#236
0#
#237
b11 3
b0 c
b110 P
b110 Z
1)
1f
b10 a
b1 +
b1 .
b1 <
b1 C
b1 ^
b1 b
1e
1d
b1110 m
1#
#238
0#
#239
b11 5
0&
b11 4
b1111 m
b11 a
b1 c
0d
b111 Z
b111 P
1#
#240
0#
#241
b1000 P
b1000 Z
b100 a
b10 c
1#
#242
0#
#243
b101 a
b11 c
b1001 Z
b1001 P
1#
#244
0#
#245
b1010 P
b1010 Z
b110 a
b100 c
1#
#246
0#
#247
b111 a
b101 c
b1011 Z
b1011 P
1#
#248
0#
#249
b10 3
b1100 P
b1100 Z
b0 a
0)
0f
b110 c
1#
#250
0#
0!
#251
b10 5
1&
b10 4
b1 x
b111 c
b1101 Z
b1101 P
1#
#252
0#
#253
b10 x
b1110 P
b1110 Z
b1000 c
b0 m
1#
#254
0#
#255
b11 x
b1 m
b1001 c
b1111 Z
b1111 P
1#
#256
0#
#257
b100 x
b0 P
b0 Z
b1010 c
b10 m
1#
#258
0#
#259
b0 c
b101 x
b11 m
b0 +
b0 .
b0 <
b0 C
b0 ^
b0 b
b1 Z
b1 P
1#
#260
0#
#261
0v
b0 x
b10 P
b10 Z
b1 c
b100 m
1#
#262
0#
#263
b101 m
b10 c
b11 Z
b11 P
1#
#264
0#
#265
b100 P
b100 Z
b11 c
b110 m
1#
#266
0#
#267
b111 m
b100 c
b101 Z
b101 P
1#
#268
0#
#269
b110 P
b110 Z
b101 c
b1000 m
1#
#270
0#
#271
b1001 m
b110 c
b111 Z
b111 P
1#
#272
0#
#273
b1000 P
b1000 Z
b111 c
b1010 m
1#
#274
0#
#275
b1 x
b1011 m
b1000 c
b1001 Z
b1001 P
1#
1!
#276
0#
#277
b10 x
b1010 P
b1010 Z
b1001 c
b1100 m
1#
#278
0#
#279
b11 x
b1101 m
b1010 c
b1011 Z
b1011 P
1#
#280
0#
#281
b100 x
b1100 P
b1100 Z
b1011 c
b1110 m
1#
#282
0#
#283
b101 x
b1111 m
b1100 c
b1101 Z
b1101 P
1#
#284
0#
#285
0I
1v
b0 x
b1110 P
b1110 Z
b1101 c
b0 m
1#
#286
0#
#287
b11 3
b0 c
b1 m
1)
1f
b10 a
b1 +
b1 .
b1 <
b1 C
b1 ^
b1 b
0e
1d
b1111 Z
b1111 P
1#
#288
0#
#289
b11 4
b11 5
0&
b0 P
b0 Z
b11 a
b1 c
0d
b10 m
1#
#290
0#
#291
b100 a
b10 c
b1 Z
b1 P
1#
#292
0#
#293
b10 P
b10 Z
b101 a
b11 c
1#
#294
0#
#295
b110 a
b100 c
b11 Z
b11 P
1#
#296
0#
#297
b100 P
b100 Z
b111 a
b101 c
1#
#298
0#
#299
b10 3
b0 a
0)
0f
b110 c
b101 Z
b101 P
1#
#300
0#
0!
#301
b10 4
b10 5
1&
b1 x
b110 P
b110 Z
b111 c
1#
#302
0#
#303
b10 x
b11 m
b1000 c
b111 Z
b111 P
1#
#304
0#
#305
b11 x
b1000 P
b1000 Z
b1001 c
b100 m
1#
#306
0#
#307
b100 x
b101 m
b1010 c
b1001 Z
b1001 P
1#
#308
0#
#309
b101 x
b0 c
b1010 P
b1010 Z
b0 +
b0 .
b0 <
b0 C
b0 ^
b0 b
b110 m
1#
#310
0#
#311
0v
b0 x
b111 m
b1 c
b1011 Z
b1011 P
1#
#312
0#
#313
b1100 P
b1100 Z
b10 c
b1000 m
1#
#314
0#
#315
b1001 m
b11 c
b1101 Z
b1101 P
1#
#316
0#
#317
b1110 P
b1110 Z
b100 c
b1010 m
1#
#318
0#
#319
b1011 m
b101 c
b1111 Z
b1111 P
1#
#320
0#
#321
b0 P
b0 Z
b110 c
b1100 m
1#
#322
0#
#323
b1101 m
b111 c
b1 Z
b1 P
1#
#324
0#
#325
b1 x
b10 P
b10 Z
b1000 c
b1110 m
1#
1!
#326
0#
#327
b10 x
b1111 m
b1001 c
b11 Z
b11 P
1#
#328
0#
#329
b11 x
b100 P
b100 Z
b1010 c
b0 m
1#
#330
0#
#331
b100 x
b1 m
b1011 c
b101 Z
b101 P
1#
#332
0#
#333
b101 x
b110 P
b110 Z
b1100 c
b10 m
1#
#334
0#
#335
1I
1v
b0 x
b11 m
b1101 c
b111 Z
b111 P
1#
#336
0#
#337
b11 3
b0 c
b1000 P
b1000 Z
1)
1f
b10 a
b1 +
b1 .
b1 <
b1 C
b1 ^
b1 b
1e
1d
b100 m
1#
#338
0#
#339
b11 5
0&
b11 4
b101 m
b11 a
b1 c
0d
b1001 Z
b1001 P
1#
#340
0#
#341
b1010 P
b1010 Z
b100 a
b10 c
1#
#342
0#
#343
b101 a
b11 c
b1011 Z
b1011 P
1#
#344
0#
#345
b1100 P
b1100 Z
b110 a
b100 c
1#
#346
0#
#347
b111 a
b101 c
b1101 Z
b1101 P
1#
#348
0#
#349
b10 3
b1110 P
b1110 Z
b0 a
0)
0f
b110 c
1#
#350
0#
0!
#351
b10 5
1&
b10 4
b1 x
b111 c
b1111 Z
b1111 P
1#
#352
0#
#353
b10 x
b0 P
b0 Z
b1000 c
b110 m
1#
#354
0#
#355
b11 x
b111 m
b1001 c
b1 Z
b1 P
1#
#356
0#
#357
b100 x
b10 P
b10 Z
b1010 c
b1000 m
1#
#358
0#
#359
b0 c
b101 x
b1001 m
b0 +
b0 .
b0 <
b0 C
b0 ^
b0 b
b11 Z
b11 P
1#
#360
0#
#361
0v
b0 x
b100 P
b100 Z
b1 c
b1010 m
1#
#362
0#
#363
b1011 m
b10 c
b101 Z
b101 P
1#
#364
0#
#365
b110 P
b110 Z
b11 c
b1100 m
1#
#366
0#
#367
b1101 m
b100 c
b111 Z
b111 P
1#
#368
0#
#369
b1000 P
b1000 Z
b101 c
b1110 m
1#
#370
0#
#371
b1111 m
b110 c
b1001 Z
b1001 P
1#
#372
0#
#373
b1010 P
b1010 Z
b111 c
b0 m
1#
#374
0#
#375
b1 x
b1 m
b1000 c
b1011 Z
b1011 P
1#
1!
#376
0#
#377
b10 x
b1100 P
b1100 Z
b1001 c
b10 m
1#
#378
0#
#379
b11 x
b11 m
b1010 c
b1101 Z
b1101 P
1#
#380
0#
#381
b100 x
b1110 P
b1110 Z
b1011 c
b100 m
1#
#382
0#
#383
b101 x
b101 m
b1100 c
b1111 Z
b1111 P
1#
#384
0#
#385
0I
1v
b0 x
b0 P
b0 Z
b1101 c
b110 m
1#
#386
0#
#387
b11 3
b0 c
b111 m
1)
1f
b10 a
b1 +
b1 .
b1 <
b1 C
b1 ^
b1 b
0e
1d
b1 Z
b1 P
1#
#388
0#
#389
b11 4
b11 5
0&
b10 P
b10 Z
b11 a
b1 c
0d
b1000 m
1#
#390
0#
#391
b100 a
b10 c
b11 Z
b11 P
1#
#392
0#
#393
b100 P
b100 Z
b101 a
b11 c
1#
#394
0#
#395
b110 a
b100 c
b101 Z
b101 P
1#
#396
0#
#397
b110 P
b110 Z
b111 a
b101 c
1#
#398
0#
#399
b10 3
b0 a
0)
0f
b110 c
b111 Z
b111 P
1#
#400
0#
0!
#401
b10 4
b10 5
1&
b1 x
b1000 P
b1000 Z
b111 c
1#
#402
0#
#403
b10 x
b1001 m
b1000 c
b1001 Z
b1001 P
1#
#404
0#
#405
b11 x
b1010 P
b1010 Z
b1001 c
b1010 m
1#
#406
0#
#407
b100 x
b1011 m
b1010 c
b1011 Z
b1011 P
1#
#408
0#
#409
b101 x
b0 c
b1100 P
b1100 Z
b0 +
b0 .
b0 <
b0 C
b0 ^
b0 b
b1100 m
1#
#410
0#
#411
0v
b0 x
b1101 m
b1 c
b1101 Z
b1101 P
1#
#412
0#
#413
b1110 P
b1110 Z
b10 c
b1110 m
1#
#414
0#
#415
b1111 m
b11 c
b1111 Z
b1111 P
1#
#416
0#
#417
b0 P
b0 Z
b100 c
b0 m
1#
#418
0#
#419
b1 m
b101 c
b1 Z
b1 P
1#
#420
0#
#421
b10 P
b10 Z
b110 c
b10 m
1#
#422
0#
#423
b11 m
b111 c
b11 Z
b11 P
1#
#424
0#
#425
b1 x
b100 P
b100 Z
b1000 c
b100 m
1#
1!
#426
0#
#427
b10 x
b101 m
b1001 c
b101 Z
b101 P
1#
#428
0#
#429
b11 x
b110 P
b110 Z
b1010 c
b110 m
1#
#430
0#
#431
b100 x
b111 m
b1011 c
b111 Z
b111 P
1#
#432
0#
#433
b101 x
b1000 P
b1000 Z
b1100 c
b1000 m
1#
#434
0#
#435
1I
1v
b0 x
b1001 m
b1101 c
b1001 Z
b1001 P
1#
#436
0#
#437
b11 3
b0 c
b1010 P
b1010 Z
1)
1f
b10 a
b1 +
b1 .
b1 <
b1 C
b1 ^
b1 b
1e
1d
b1010 m
1#
#438
0#
#439
b11 5
0&
b11 4
b1011 m
b11 a
b1 c
0d
b1011 Z
b1011 P
1#
#440
0#
#441
b1100 P
b1100 Z
b100 a
b10 c
1#
#442
0#
#443
b101 a
b11 c
b1101 Z
b1101 P
1#
#444
0#
#445
b1110 P
b1110 Z
b110 a
b100 c
1#
#446
0#
#447
b111 a
b101 c
b1111 Z
b1111 P
1#
#448
0#
#449
b10 3
b0 P
b0 Z
b0 a
0)
0f
b110 c
1#
#450
0#
0!
#451
b10 5
1&
b10 4
b1 x
b111 c
b1 Z
b1 P
1#
#452
0#
#453
b10 x
b10 P
b10 Z
b1000 c
b1100 m
1#
#454
0#
#455
b11 x
b1101 m
b1001 c
b11 Z
b11 P
1#
#456
0#
#457
b100 x
b100 P
b100 Z
b1010 c
b1110 m
1#
#458
0#
#459
b0 c
b101 x
b1111 m
b0 +
b0 .
b0 <
b0 C
b0 ^
b0 b
b101 Z
b101 P
1#
#460
0#
#461
0v
b0 x
b110 P
b110 Z
b1 c
b0 m
1#
#462
0#
#463
b1 m
b10 c
b111 Z
b111 P
1#
#464
0#
#465
b1000 P
b1000 Z
b11 c
b10 m
1#
#466
0#
#467
b11 m
b100 c
b1001 Z
b1001 P
1#
#468
0#
#469
b1010 P
b1010 Z
b101 c
b100 m
1#
#470
0#
#471
b101 m
b110 c
b1011 Z
b1011 P
1#
#472
0#
#473
b1100 P
b1100 Z
b111 c
b110 m
1#
#474
0#
#475
b1 x
b111 m
b1000 c
b1101 Z
b1101 P
1#
1!
#476
0#
#477
b10 x
b1110 P
b1110 Z
b1001 c
b1000 m
1#
#478
0#
#479
b11 x
b1001 m
b1010 c
b1111 Z
b1111 P
1#
#480
0#
#481
b100 x
b0 P
b0 Z
b1011 c
b1010 m
1#
#482
0#
#483
b101 x
b1011 m
b1100 c
b1 Z
b1 P
1#
#484
0#
#485
0I
1v
b0 x
b10 P
b10 Z
b1101 c
b1100 m
1#
#486
0#
#487
b11 3
b0 c
b1101 m
1)
1f
b10 a
b1 +
b1 .
b1 <
b1 C
b1 ^
b1 b
0e
1d
b11 Z
b11 P
1#
#488
0#
#489
b11 4
b11 5
0&
b100 P
b100 Z
b11 a
b1 c
0d
b1110 m
1#
#490
0#
#491
b100 a
b10 c
b101 Z
b101 P
1#
#492
0#
#493
b110 P
b110 Z
b101 a
b11 c
1#
#494
0#
#495
b110 a
b100 c
b111 Z
b111 P
1#
#496
0#
#497
b1000 P
b1000 Z
b111 a
b101 c
1#
#498
0#
#499
b10 3
b0 a
0)
0f
b110 c
b1001 Z
b1001 P
1#
#500
0#
0!
1$
